

 [INFO][http-nio-8080-exec-1] 13 Oct 2017 17:15:05 172 -- Hibernate 3.2.1 


 [INFO][http-nio-8080-exec-1] 13 Oct 2017 17:15:05 174 -- hibernate.properties not found 


 [INFO][http-nio-8080-exec-1] 13 Oct 2017 17:15:05 175 -- Bytecode provider name : cglib 


 [INFO][http-nio-8080-exec-1] 13 Oct 2017 17:15:05 176 -- using JDK 1.4 java.sql.Timestamp handling 


 [INFO][http-nio-8080-exec-1] 13 Oct 2017 17:15:05 197 -- configuring from resource: hibernate/configuration/hibernate.cfg.xml 


 [INFO][http-nio-8080-exec-1] 13 Oct 2017 17:15:05 197 -- Configuration resource: hibernate/configuration/hibernate.cfg.xml 


 [INFO][http-nio-8080-exec-1] 13 Oct 2017 17:15:06 714 -- Reading mappings from resource : hibernate/model/Employee.hbm.xml 


 [INFO][http-nio-8080-exec-1] 13 Oct 2017 17:15:07 668 -- Mapping class: com.ideas2it.employee.model.Employee -> Employee 


 [INFO][http-nio-8080-exec-1] 13 Oct 2017 17:15:07 675 -- Mapping collection: com.ideas2it.employee.model.Employee.projects -> EmployeeProject 


 [INFO][http-nio-8080-exec-1] 13 Oct 2017 17:15:07 675 -- Reading mappings from resource : hibernate/model/Client.hbm.xml 


 [INFO][http-nio-8080-exec-1] 13 Oct 2017 17:15:08 607 -- Mapping class: com.ideas2it.client.model.Client -> Client 


 [INFO][http-nio-8080-exec-1] 13 Oct 2017 17:15:08 607 -- Reading mappings from resource : hibernate/model/Address.hbm.xml 


 [INFO][http-nio-8080-exec-1] 13 Oct 2017 17:15:09 546 -- Mapping class: com.ideas2it.address.model.Address -> Address 


 [INFO][http-nio-8080-exec-1] 13 Oct 2017 17:15:09 569 -- Reading mappings from resource : hibernate/model/Project.hbm.xml 


 [INFO][http-nio-8080-exec-1] 13 Oct 2017 17:15:10 199 -- Mapping class: com.ideas2it.project.model.Project -> Project 


 [INFO][http-nio-8080-exec-1] 13 Oct 2017 17:15:10 199 -- Mapping collection: com.ideas2it.project.model.Project.employees -> EmployeeProject 


 [INFO][http-nio-8080-exec-1] 13 Oct 2017 17:15:10 200 -- Configured SessionFactory: null 


 [INFO][http-nio-8080-exec-1] 13 Oct 2017 17:15:10 200 -- Mapping collection: com.ideas2it.employee.model.Employee.addresses -> Address 


 [INFO][http-nio-8080-exec-1] 13 Oct 2017 17:15:10 201 -- Mapping collection: com.ideas2it.client.model.Client.addresses -> Address 


 [INFO][http-nio-8080-exec-1] 13 Oct 2017 17:15:10 201 -- Mapping collection: com.ideas2it.client.model.Client.projects -> Project 


 [INFO][http-nio-8080-exec-1] 13 Oct 2017 17:15:10 204 -- Using Hibernate built-in connection pool (not for production use!) 


 [INFO][http-nio-8080-exec-1] 13 Oct 2017 17:15:10 204 -- Hibernate connection pool size: 20 


 [INFO][http-nio-8080-exec-1] 13 Oct 2017 17:15:10 204 -- autocommit mode: false 


 [INFO][http-nio-8080-exec-1] 13 Oct 2017 17:15:10 206 -- using driver: com.mysql.jdbc.Driver at URL: jdbc:mysql://localhost:3306/CompanyManagement 


 [INFO][http-nio-8080-exec-1] 13 Oct 2017 17:15:10 206 -- connection properties: {user=root, password=****} 


 [INFO][http-nio-8080-exec-1] 13 Oct 2017 17:15:10 370 -- RDBMS: MySQL, version: 5.7.19-0ubuntu0.16.04.1 


 [INFO][http-nio-8080-exec-1] 13 Oct 2017 17:15:10 370 -- JDBC driver: MySQL-AB JDBC Driver, version: mysql-connector-java-5.1.5 ( Revision: ${svn.Revision} ) 


 [INFO][http-nio-8080-exec-1] 13 Oct 2017 17:15:10 378 -- Using dialect: org.hibernate.dialect.MySQLDialect 


 [INFO][http-nio-8080-exec-1] 13 Oct 2017 17:15:10 380 -- Using default transaction strategy (direct JDBC transactions) 


 [INFO][http-nio-8080-exec-1] 13 Oct 2017 17:15:10 381 -- No TransactionManagerLookup configured (in JTA environment, use of read-write or transactional second-level cache is not recommended) 


 [INFO][http-nio-8080-exec-1] 13 Oct 2017 17:15:10 381 -- Automatic flush during beforeCompletion(): disabled 


 [INFO][http-nio-8080-exec-1] 13 Oct 2017 17:15:10 381 -- Automatic session close at end of transaction: disabled 


 [INFO][http-nio-8080-exec-1] 13 Oct 2017 17:15:10 381 -- JDBC batch size: 15 


 [INFO][http-nio-8080-exec-1] 13 Oct 2017 17:15:10 381 -- JDBC batch updates for versioned data: disabled 


 [INFO][http-nio-8080-exec-1] 13 Oct 2017 17:15:10 381 -- Scrollable result sets: enabled 


 [INFO][http-nio-8080-exec-1] 13 Oct 2017 17:15:10 382 -- JDBC3 getGeneratedKeys(): enabled 


 [INFO][http-nio-8080-exec-1] 13 Oct 2017 17:15:10 382 -- Connection release mode: auto 


 [INFO][http-nio-8080-exec-1] 13 Oct 2017 17:15:10 382 -- Maximum outer join fetch depth: 2 


 [INFO][http-nio-8080-exec-1] 13 Oct 2017 17:15:10 382 -- Default batch fetch size: 1 


 [INFO][http-nio-8080-exec-1] 13 Oct 2017 17:15:10 382 -- Generate SQL with comments: disabled 


 [INFO][http-nio-8080-exec-1] 13 Oct 2017 17:15:10 382 -- Order SQL updates by primary key: disabled 


 [INFO][http-nio-8080-exec-1] 13 Oct 2017 17:15:10 382 -- Query translator: org.hibernate.hql.ast.ASTQueryTranslatorFactory 


 [INFO][http-nio-8080-exec-1] 13 Oct 2017 17:15:10 383 -- Using ASTQueryTranslatorFactory 


 [INFO][http-nio-8080-exec-1] 13 Oct 2017 17:15:10 383 -- Query language substitutions: {} 


 [INFO][http-nio-8080-exec-1] 13 Oct 2017 17:15:10 383 -- JPA-QL strict compliance: disabled 


 [INFO][http-nio-8080-exec-1] 13 Oct 2017 17:15:10 383 -- Second-level cache: enabled 


 [INFO][http-nio-8080-exec-1] 13 Oct 2017 17:15:10 383 -- Query cache: disabled 


 [INFO][http-nio-8080-exec-1] 13 Oct 2017 17:15:10 383 -- Cache provider: org.hibernate.cache.NoCacheProvider 


 [INFO][http-nio-8080-exec-1] 13 Oct 2017 17:15:10 383 -- Optimize cache for minimal puts: disabled 


 [INFO][http-nio-8080-exec-1] 13 Oct 2017 17:15:10 383 -- Structured second-level cache entries: disabled 


 [INFO][http-nio-8080-exec-1] 13 Oct 2017 17:15:10 385 -- Echoing all SQL to stdout 


 [INFO][http-nio-8080-exec-1] 13 Oct 2017 17:15:10 385 -- Statistics: disabled 


 [INFO][http-nio-8080-exec-1] 13 Oct 2017 17:15:10 385 -- Deleted entity synthetic identifier rollback: disabled 


 [INFO][http-nio-8080-exec-1] 13 Oct 2017 17:15:10 385 -- Default entity-mode: pojo 


 [INFO][http-nio-8080-exec-1] 13 Oct 2017 17:15:10 400 -- building session factory 


 [INFO][http-nio-8080-exec-1] 13 Oct 2017 17:15:10 527 -- Not binding factory to JNDI, no JNDI name configured 


 [INFO][http-nio-8080-exec-1] 13 Oct 2017 17:18:08 925 -- Hibernate 3.2.1 


 [INFO][http-nio-8080-exec-1] 13 Oct 2017 17:18:08 926 -- hibernate.properties not found 


 [INFO][http-nio-8080-exec-1] 13 Oct 2017 17:18:08 927 -- Bytecode provider name : cglib 


 [INFO][http-nio-8080-exec-1] 13 Oct 2017 17:18:08 929 -- using JDK 1.4 java.sql.Timestamp handling 


 [INFO][http-nio-8080-exec-1] 13 Oct 2017 17:18:08 949 -- configuring from resource: hibernate/configuration/hibernate.cfg.xml 


 [INFO][http-nio-8080-exec-1] 13 Oct 2017 17:18:08 949 -- Configuration resource: hibernate/configuration/hibernate.cfg.xml 


 [INFO][http-nio-8080-exec-1] 13 Oct 2017 17:18:10 926 -- Reading mappings from resource : hibernate/model/Employee.hbm.xml 


 [INFO][http-nio-8080-exec-1] 13 Oct 2017 17:18:11 910 -- Mapping class: com.ideas2it.employee.model.Employee -> Employee 


 [INFO][http-nio-8080-exec-1] 13 Oct 2017 17:18:11 917 -- Mapping collection: com.ideas2it.employee.model.Employee.projects -> EmployeeProject 


 [INFO][http-nio-8080-exec-1] 13 Oct 2017 17:18:11 917 -- Reading mappings from resource : hibernate/model/Client.hbm.xml 


 [INFO][http-nio-8080-exec-1] 13 Oct 2017 17:18:12 861 -- Mapping class: com.ideas2it.client.model.Client -> Client 


 [INFO][http-nio-8080-exec-1] 13 Oct 2017 17:18:12 862 -- Reading mappings from resource : hibernate/model/Address.hbm.xml 


 [INFO][http-nio-8080-exec-1] 13 Oct 2017 17:18:13 804 -- Mapping class: com.ideas2it.address.model.Address -> Address 


 [INFO][http-nio-8080-exec-1] 13 Oct 2017 17:18:13 831 -- Reading mappings from resource : hibernate/model/Project.hbm.xml 


 [INFO][http-nio-8080-exec-1] 13 Oct 2017 17:18:14 467 -- Mapping class: com.ideas2it.project.model.Project -> Project 


 [INFO][http-nio-8080-exec-1] 13 Oct 2017 17:18:14 468 -- Mapping collection: com.ideas2it.project.model.Project.employees -> EmployeeProject 


 [INFO][http-nio-8080-exec-1] 13 Oct 2017 17:18:14 468 -- Configured SessionFactory: null 


 [INFO][http-nio-8080-exec-1] 13 Oct 2017 17:18:14 468 -- Mapping collection: com.ideas2it.employee.model.Employee.addresses -> Address 


 [INFO][http-nio-8080-exec-1] 13 Oct 2017 17:18:14 469 -- Mapping collection: com.ideas2it.client.model.Client.addresses -> Address 


 [INFO][http-nio-8080-exec-1] 13 Oct 2017 17:18:14 469 -- Mapping collection: com.ideas2it.client.model.Client.projects -> Project 


 [INFO][http-nio-8080-exec-1] 13 Oct 2017 17:18:14 474 -- Using Hibernate built-in connection pool (not for production use!) 


 [INFO][http-nio-8080-exec-1] 13 Oct 2017 17:18:14 474 -- Hibernate connection pool size: 20 


 [INFO][http-nio-8080-exec-1] 13 Oct 2017 17:18:14 474 -- autocommit mode: false 


 [INFO][http-nio-8080-exec-1] 13 Oct 2017 17:18:14 477 -- using driver: com.mysql.jdbc.Driver at URL: jdbc:mysql://localhost:3306/CompanyManagement 


 [INFO][http-nio-8080-exec-1] 13 Oct 2017 17:18:14 477 -- connection properties: {user=root, password=****} 


 [INFO][http-nio-8080-exec-1] 13 Oct 2017 17:18:14 655 -- RDBMS: MySQL, version: 5.7.19-0ubuntu0.16.04.1 


 [INFO][http-nio-8080-exec-1] 13 Oct 2017 17:18:14 655 -- JDBC driver: MySQL-AB JDBC Driver, version: mysql-connector-java-5.1.5 ( Revision: ${svn.Revision} ) 


 [INFO][http-nio-8080-exec-1] 13 Oct 2017 17:18:14 663 -- Using dialect: org.hibernate.dialect.MySQLDialect 


 [INFO][http-nio-8080-exec-1] 13 Oct 2017 17:18:14 665 -- Using default transaction strategy (direct JDBC transactions) 


 [INFO][http-nio-8080-exec-1] 13 Oct 2017 17:18:14 666 -- No TransactionManagerLookup configured (in JTA environment, use of read-write or transactional second-level cache is not recommended) 


 [INFO][http-nio-8080-exec-1] 13 Oct 2017 17:18:14 666 -- Automatic flush during beforeCompletion(): disabled 


 [INFO][http-nio-8080-exec-1] 13 Oct 2017 17:18:14 666 -- Automatic session close at end of transaction: disabled 


 [INFO][http-nio-8080-exec-1] 13 Oct 2017 17:18:14 666 -- JDBC batch size: 15 


 [INFO][http-nio-8080-exec-1] 13 Oct 2017 17:18:14 666 -- JDBC batch updates for versioned data: disabled 


 [INFO][http-nio-8080-exec-1] 13 Oct 2017 17:18:14 666 -- Scrollable result sets: enabled 


 [INFO][http-nio-8080-exec-1] 13 Oct 2017 17:18:14 667 -- JDBC3 getGeneratedKeys(): enabled 


 [INFO][http-nio-8080-exec-1] 13 Oct 2017 17:18:14 667 -- Connection release mode: auto 


 [INFO][http-nio-8080-exec-1] 13 Oct 2017 17:18:14 667 -- Maximum outer join fetch depth: 2 


 [INFO][http-nio-8080-exec-1] 13 Oct 2017 17:18:14 667 -- Default batch fetch size: 1 


 [INFO][http-nio-8080-exec-1] 13 Oct 2017 17:18:14 667 -- Generate SQL with comments: disabled 


 [INFO][http-nio-8080-exec-1] 13 Oct 2017 17:18:14 667 -- Order SQL updates by primary key: disabled 


 [INFO][http-nio-8080-exec-1] 13 Oct 2017 17:18:14 667 -- Query translator: org.hibernate.hql.ast.ASTQueryTranslatorFactory 


 [INFO][http-nio-8080-exec-1] 13 Oct 2017 17:18:14 668 -- Using ASTQueryTranslatorFactory 


 [INFO][http-nio-8080-exec-1] 13 Oct 2017 17:18:14 668 -- Query language substitutions: {} 


 [INFO][http-nio-8080-exec-1] 13 Oct 2017 17:18:14 668 -- JPA-QL strict compliance: disabled 


 [INFO][http-nio-8080-exec-1] 13 Oct 2017 17:18:14 668 -- Second-level cache: enabled 


 [INFO][http-nio-8080-exec-1] 13 Oct 2017 17:18:14 668 -- Query cache: disabled 


 [INFO][http-nio-8080-exec-1] 13 Oct 2017 17:18:14 668 -- Cache provider: org.hibernate.cache.NoCacheProvider 


 [INFO][http-nio-8080-exec-1] 13 Oct 2017 17:18:14 668 -- Optimize cache for minimal puts: disabled 


 [INFO][http-nio-8080-exec-1] 13 Oct 2017 17:18:14 668 -- Structured second-level cache entries: disabled 


 [INFO][http-nio-8080-exec-1] 13 Oct 2017 17:18:14 670 -- Echoing all SQL to stdout 


 [INFO][http-nio-8080-exec-1] 13 Oct 2017 17:18:14 670 -- Statistics: disabled 


 [INFO][http-nio-8080-exec-1] 13 Oct 2017 17:18:14 670 -- Deleted entity synthetic identifier rollback: disabled 


 [INFO][http-nio-8080-exec-1] 13 Oct 2017 17:18:14 670 -- Default entity-mode: pojo 


 [INFO][http-nio-8080-exec-1] 13 Oct 2017 17:18:14 687 -- building session factory 


 [INFO][http-nio-8080-exec-1] 13 Oct 2017 17:18:14 835 -- Not binding factory to JNDI, no JNDI name configured 


 [INFO][http-nio-8080-exec-1] 13 Oct 2017 17:32:47 836 -- Hibernate 3.2.1 


 [INFO][http-nio-8080-exec-1] 13 Oct 2017 17:32:47 838 -- hibernate.properties not found 


 [INFO][http-nio-8080-exec-1] 13 Oct 2017 17:32:47 839 -- Bytecode provider name : cglib 


 [INFO][http-nio-8080-exec-1] 13 Oct 2017 17:32:47 840 -- using JDK 1.4 java.sql.Timestamp handling 


 [INFO][http-nio-8080-exec-1] 13 Oct 2017 17:32:47 858 -- configuring from resource: hibernate/configuration/hibernate.cfg.xml 


 [INFO][http-nio-8080-exec-1] 13 Oct 2017 17:32:47 858 -- Configuration resource: hibernate/configuration/hibernate.cfg.xml 


 [INFO][http-nio-8080-exec-1] 13 Oct 2017 17:32:49 436 -- Reading mappings from resource : hibernate/model/Employee.hbm.xml 


 [INFO][http-nio-8080-exec-1] 13 Oct 2017 17:32:50 389 -- Mapping class: com.ideas2it.employee.model.Employee -> Employee 


 [INFO][http-nio-8080-exec-1] 13 Oct 2017 17:32:50 396 -- Mapping collection: com.ideas2it.employee.model.Employee.projects -> EmployeeProject 


 [INFO][http-nio-8080-exec-1] 13 Oct 2017 17:32:50 396 -- Reading mappings from resource : hibernate/model/Client.hbm.xml 


 [INFO][http-nio-8080-exec-1] 13 Oct 2017 17:32:51 344 -- Mapping class: com.ideas2it.client.model.Client -> Client 


 [INFO][http-nio-8080-exec-1] 13 Oct 2017 17:32:51 344 -- Reading mappings from resource : hibernate/model/Address.hbm.xml 


 [INFO][http-nio-8080-exec-1] 13 Oct 2017 17:32:51 965 -- Mapping class: com.ideas2it.address.model.Address -> Address 


 [INFO][http-nio-8080-exec-1] 13 Oct 2017 17:32:51 987 -- Reading mappings from resource : hibernate/model/Project.hbm.xml 


 [INFO][http-nio-8080-exec-1] 13 Oct 2017 17:32:52 582 -- Mapping class: com.ideas2it.project.model.Project -> Project 


 [INFO][http-nio-8080-exec-1] 13 Oct 2017 17:32:52 583 -- Mapping collection: com.ideas2it.project.model.Project.employees -> EmployeeProject 


 [INFO][http-nio-8080-exec-1] 13 Oct 2017 17:32:52 583 -- Configured SessionFactory: null 


 [INFO][http-nio-8080-exec-1] 13 Oct 2017 17:32:52 583 -- Mapping collection: com.ideas2it.employee.model.Employee.addresses -> Address 


 [INFO][http-nio-8080-exec-1] 13 Oct 2017 17:32:52 584 -- Mapping collection: com.ideas2it.client.model.Client.addresses -> Address 


 [INFO][http-nio-8080-exec-1] 13 Oct 2017 17:32:52 584 -- Mapping collection: com.ideas2it.client.model.Client.projects -> Project 


 [INFO][http-nio-8080-exec-1] 13 Oct 2017 17:32:52 588 -- Using Hibernate built-in connection pool (not for production use!) 


 [INFO][http-nio-8080-exec-1] 13 Oct 2017 17:32:52 588 -- Hibernate connection pool size: 20 


 [INFO][http-nio-8080-exec-1] 13 Oct 2017 17:32:52 588 -- autocommit mode: false 


 [INFO][http-nio-8080-exec-1] 13 Oct 2017 17:32:52 589 -- using driver: com.mysql.jdbc.Driver at URL: jdbc:mysql://localhost:3306/CompanyManagement 


 [INFO][http-nio-8080-exec-1] 13 Oct 2017 17:32:52 589 -- connection properties: {user=root, password=****} 


 [INFO][http-nio-8080-exec-1] 13 Oct 2017 17:32:52 759 -- RDBMS: MySQL, version: 5.7.19-0ubuntu0.16.04.1 


 [INFO][http-nio-8080-exec-1] 13 Oct 2017 17:32:52 759 -- JDBC driver: MySQL-AB JDBC Driver, version: mysql-connector-java-5.1.5 ( Revision: ${svn.Revision} ) 


 [INFO][http-nio-8080-exec-1] 13 Oct 2017 17:32:52 766 -- Using dialect: org.hibernate.dialect.MySQLDialect 


 [INFO][http-nio-8080-exec-1] 13 Oct 2017 17:32:52 768 -- Using default transaction strategy (direct JDBC transactions) 


 [INFO][http-nio-8080-exec-1] 13 Oct 2017 17:32:52 769 -- No TransactionManagerLookup configured (in JTA environment, use of read-write or transactional second-level cache is not recommended) 


 [INFO][http-nio-8080-exec-1] 13 Oct 2017 17:32:52 769 -- Automatic flush during beforeCompletion(): disabled 


 [INFO][http-nio-8080-exec-1] 13 Oct 2017 17:32:52 769 -- Automatic session close at end of transaction: disabled 


 [INFO][http-nio-8080-exec-1] 13 Oct 2017 17:32:52 769 -- JDBC batch size: 15 


 [INFO][http-nio-8080-exec-1] 13 Oct 2017 17:32:52 769 -- JDBC batch updates for versioned data: disabled 


 [INFO][http-nio-8080-exec-1] 13 Oct 2017 17:32:52 769 -- Scrollable result sets: enabled 


 [INFO][http-nio-8080-exec-1] 13 Oct 2017 17:32:52 769 -- JDBC3 getGeneratedKeys(): enabled 


 [INFO][http-nio-8080-exec-1] 13 Oct 2017 17:32:52 769 -- Connection release mode: auto 


 [INFO][http-nio-8080-exec-1] 13 Oct 2017 17:32:52 770 -- Maximum outer join fetch depth: 2 


 [INFO][http-nio-8080-exec-1] 13 Oct 2017 17:32:52 770 -- Default batch fetch size: 1 


 [INFO][http-nio-8080-exec-1] 13 Oct 2017 17:32:52 770 -- Generate SQL with comments: disabled 


 [INFO][http-nio-8080-exec-1] 13 Oct 2017 17:32:52 770 -- Order SQL updates by primary key: disabled 


 [INFO][http-nio-8080-exec-1] 13 Oct 2017 17:32:52 770 -- Query translator: org.hibernate.hql.ast.ASTQueryTranslatorFactory 


 [INFO][http-nio-8080-exec-1] 13 Oct 2017 17:32:52 771 -- Using ASTQueryTranslatorFactory 


 [INFO][http-nio-8080-exec-1] 13 Oct 2017 17:32:52 771 -- Query language substitutions: {} 


 [INFO][http-nio-8080-exec-1] 13 Oct 2017 17:32:52 771 -- JPA-QL strict compliance: disabled 


 [INFO][http-nio-8080-exec-1] 13 Oct 2017 17:32:52 771 -- Second-level cache: enabled 


 [INFO][http-nio-8080-exec-1] 13 Oct 2017 17:32:52 771 -- Query cache: disabled 


 [INFO][http-nio-8080-exec-1] 13 Oct 2017 17:32:52 771 -- Cache provider: org.hibernate.cache.NoCacheProvider 


 [INFO][http-nio-8080-exec-1] 13 Oct 2017 17:32:52 771 -- Optimize cache for minimal puts: disabled 


 [INFO][http-nio-8080-exec-1] 13 Oct 2017 17:32:52 771 -- Structured second-level cache entries: disabled 


 [INFO][http-nio-8080-exec-1] 13 Oct 2017 17:32:52 773 -- Echoing all SQL to stdout 


 [INFO][http-nio-8080-exec-1] 13 Oct 2017 17:32:52 773 -- Statistics: disabled 


 [INFO][http-nio-8080-exec-1] 13 Oct 2017 17:32:52 773 -- Deleted entity synthetic identifier rollback: disabled 


 [INFO][http-nio-8080-exec-1] 13 Oct 2017 17:32:52 773 -- Default entity-mode: pojo 


 [INFO][http-nio-8080-exec-1] 13 Oct 2017 17:32:52 786 -- building session factory 


 [INFO][http-nio-8080-exec-1] 13 Oct 2017 17:32:52 925 -- Not binding factory to JNDI, no JNDI name configured 


 [INFO][http-nio-8080-exec-2] 13 Oct 2017 17:43:37 290 -- Hibernate 3.2.1 


 [INFO][http-nio-8080-exec-2] 13 Oct 2017 17:43:37 291 -- hibernate.properties not found 


 [INFO][http-nio-8080-exec-2] 13 Oct 2017 17:43:37 292 -- Bytecode provider name : cglib 


 [INFO][http-nio-8080-exec-2] 13 Oct 2017 17:43:37 293 -- using JDK 1.4 java.sql.Timestamp handling 


 [INFO][http-nio-8080-exec-2] 13 Oct 2017 17:43:37 311 -- configuring from resource: hibernate/configuration/hibernate.cfg.xml 


 [INFO][http-nio-8080-exec-2] 13 Oct 2017 17:43:37 311 -- Configuration resource: hibernate/configuration/hibernate.cfg.xml 


 [INFO][http-nio-8080-exec-2] 13 Oct 2017 17:43:43 485 -- Reading mappings from resource : hibernate/model/Employee.hbm.xml 


 [INFO][http-nio-8080-exec-2] 13 Oct 2017 17:43:44 370 -- Mapping class: com.ideas2it.employee.model.Employee -> Employee 


 [INFO][http-nio-8080-exec-2] 13 Oct 2017 17:43:44 378 -- Mapping collection: com.ideas2it.employee.model.Employee.projects -> EmployeeProject 


 [INFO][http-nio-8080-exec-2] 13 Oct 2017 17:43:44 379 -- Reading mappings from resource : hibernate/model/Client.hbm.xml 


 [INFO][http-nio-8080-exec-2] 13 Oct 2017 17:43:44 966 -- Mapping class: com.ideas2it.client.model.Client -> Client 


 [INFO][http-nio-8080-exec-2] 13 Oct 2017 17:43:44 967 -- Reading mappings from resource : hibernate/model/Address.hbm.xml 


 [INFO][http-nio-8080-exec-2] 13 Oct 2017 17:43:45 538 -- Mapping class: com.ideas2it.address.model.Address -> Address 


 [INFO][http-nio-8080-exec-2] 13 Oct 2017 17:43:45 571 -- Reading mappings from resource : hibernate/model/Project.hbm.xml 


 [INFO][http-nio-8080-exec-2] 13 Oct 2017 17:43:46 131 -- Mapping class: com.ideas2it.project.model.Project -> Project 


 [INFO][http-nio-8080-exec-2] 13 Oct 2017 17:43:46 131 -- Mapping collection: com.ideas2it.project.model.Project.employees -> EmployeeProject 


 [INFO][http-nio-8080-exec-2] 13 Oct 2017 17:43:46 132 -- Configured SessionFactory: null 


 [INFO][http-nio-8080-exec-2] 13 Oct 2017 17:43:46 133 -- Mapping collection: com.ideas2it.employee.model.Employee.addresses -> Address 


 [INFO][http-nio-8080-exec-2] 13 Oct 2017 17:43:46 134 -- Mapping collection: com.ideas2it.client.model.Client.addresses -> Address 


 [INFO][http-nio-8080-exec-2] 13 Oct 2017 17:43:46 134 -- Mapping collection: com.ideas2it.client.model.Client.projects -> Project 


 [INFO][http-nio-8080-exec-2] 13 Oct 2017 17:43:46 138 -- Using Hibernate built-in connection pool (not for production use!) 


 [INFO][http-nio-8080-exec-2] 13 Oct 2017 17:43:46 138 -- Hibernate connection pool size: 20 


 [INFO][http-nio-8080-exec-2] 13 Oct 2017 17:43:46 138 -- autocommit mode: false 


 [INFO][http-nio-8080-exec-2] 13 Oct 2017 17:43:46 140 -- using driver: com.mysql.jdbc.Driver at URL: jdbc:mysql://localhost:3306/CompanyManagement 


 [INFO][http-nio-8080-exec-2] 13 Oct 2017 17:43:46 140 -- connection properties: {user=root, password=****} 


 [INFO][http-nio-8080-exec-2] 13 Oct 2017 17:43:46 306 -- RDBMS: MySQL, version: 5.7.19-0ubuntu0.16.04.1 


 [INFO][http-nio-8080-exec-2] 13 Oct 2017 17:43:46 306 -- JDBC driver: MySQL-AB JDBC Driver, version: mysql-connector-java-5.1.5 ( Revision: ${svn.Revision} ) 


 [INFO][http-nio-8080-exec-2] 13 Oct 2017 17:43:46 313 -- Using dialect: org.hibernate.dialect.MySQLDialect 


 [INFO][http-nio-8080-exec-2] 13 Oct 2017 17:43:46 316 -- Using default transaction strategy (direct JDBC transactions) 


 [INFO][http-nio-8080-exec-2] 13 Oct 2017 17:43:46 316 -- No TransactionManagerLookup configured (in JTA environment, use of read-write or transactional second-level cache is not recommended) 


 [INFO][http-nio-8080-exec-2] 13 Oct 2017 17:43:46 317 -- Automatic flush during beforeCompletion(): disabled 


 [INFO][http-nio-8080-exec-2] 13 Oct 2017 17:43:46 317 -- Automatic session close at end of transaction: disabled 


 [INFO][http-nio-8080-exec-2] 13 Oct 2017 17:43:46 317 -- JDBC batch size: 15 


 [INFO][http-nio-8080-exec-2] 13 Oct 2017 17:43:46 317 -- JDBC batch updates for versioned data: disabled 


 [INFO][http-nio-8080-exec-2] 13 Oct 2017 17:43:46 317 -- Scrollable result sets: enabled 


 [INFO][http-nio-8080-exec-2] 13 Oct 2017 17:43:46 317 -- JDBC3 getGeneratedKeys(): enabled 


 [INFO][http-nio-8080-exec-2] 13 Oct 2017 17:43:46 317 -- Connection release mode: auto 


 [INFO][http-nio-8080-exec-2] 13 Oct 2017 17:43:46 318 -- Maximum outer join fetch depth: 2 


 [INFO][http-nio-8080-exec-2] 13 Oct 2017 17:43:46 318 -- Default batch fetch size: 1 


 [INFO][http-nio-8080-exec-2] 13 Oct 2017 17:43:46 318 -- Generate SQL with comments: disabled 


 [INFO][http-nio-8080-exec-2] 13 Oct 2017 17:43:46 318 -- Order SQL updates by primary key: disabled 


 [INFO][http-nio-8080-exec-2] 13 Oct 2017 17:43:46 318 -- Query translator: org.hibernate.hql.ast.ASTQueryTranslatorFactory 


 [INFO][http-nio-8080-exec-2] 13 Oct 2017 17:43:46 320 -- Using ASTQueryTranslatorFactory 


 [INFO][http-nio-8080-exec-2] 13 Oct 2017 17:43:46 320 -- Query language substitutions: {} 


 [INFO][http-nio-8080-exec-2] 13 Oct 2017 17:43:46 320 -- JPA-QL strict compliance: disabled 


 [INFO][http-nio-8080-exec-2] 13 Oct 2017 17:43:46 320 -- Second-level cache: enabled 


 [INFO][http-nio-8080-exec-2] 13 Oct 2017 17:43:46 320 -- Query cache: disabled 


 [INFO][http-nio-8080-exec-2] 13 Oct 2017 17:43:46 320 -- Cache provider: org.hibernate.cache.NoCacheProvider 


 [INFO][http-nio-8080-exec-2] 13 Oct 2017 17:43:46 320 -- Optimize cache for minimal puts: disabled 


 [INFO][http-nio-8080-exec-2] 13 Oct 2017 17:43:46 320 -- Structured second-level cache entries: disabled 


 [INFO][http-nio-8080-exec-2] 13 Oct 2017 17:43:46 322 -- Echoing all SQL to stdout 


 [INFO][http-nio-8080-exec-2] 13 Oct 2017 17:43:46 322 -- Statistics: disabled 


 [INFO][http-nio-8080-exec-2] 13 Oct 2017 17:43:46 322 -- Deleted entity synthetic identifier rollback: disabled 


 [INFO][http-nio-8080-exec-2] 13 Oct 2017 17:43:46 322 -- Default entity-mode: pojo 


 [INFO][http-nio-8080-exec-2] 13 Oct 2017 17:43:46 334 -- building session factory 


 [INFO][http-nio-8080-exec-2] 13 Oct 2017 17:43:46 462 -- Not binding factory to JNDI, no JNDI name configured 


 [INFO][http-nio-8080-exec-1] 13 Oct 2017 17:49:18 330 -- Hibernate 3.2.1 


 [INFO][http-nio-8080-exec-1] 13 Oct 2017 17:49:18 332 -- hibernate.properties not found 


 [INFO][http-nio-8080-exec-1] 13 Oct 2017 17:49:18 332 -- Bytecode provider name : cglib 


 [INFO][http-nio-8080-exec-1] 13 Oct 2017 17:49:18 334 -- using JDK 1.4 java.sql.Timestamp handling 


 [INFO][http-nio-8080-exec-1] 13 Oct 2017 17:49:18 355 -- configuring from resource: hibernate/configuration/hibernate.cfg.xml 


 [INFO][http-nio-8080-exec-1] 13 Oct 2017 17:49:18 355 -- Configuration resource: hibernate/configuration/hibernate.cfg.xml 


 [INFO][http-nio-8080-exec-1] 13 Oct 2017 17:49:24 605 -- Reading mappings from resource : hibernate/model/Employee.hbm.xml 


 [INFO][http-nio-8080-exec-1] 13 Oct 2017 17:49:27 471 -- Mapping class: com.ideas2it.employee.model.Employee -> Employee 


 [INFO][http-nio-8080-exec-1] 13 Oct 2017 17:49:27 477 -- Mapping collection: com.ideas2it.employee.model.Employee.projects -> EmployeeProject 


 [INFO][http-nio-8080-exec-1] 13 Oct 2017 17:49:27 478 -- Reading mappings from resource : hibernate/model/Client.hbm.xml 


 [INFO][http-nio-8080-exec-1] 13 Oct 2017 17:49:29 185 -- Mapping class: com.ideas2it.client.model.Client -> Client 


 [INFO][http-nio-8080-exec-1] 13 Oct 2017 17:49:29 186 -- Reading mappings from resource : hibernate/model/Address.hbm.xml 


 [INFO][http-nio-8080-exec-1] 13 Oct 2017 17:49:31 228 -- Mapping class: com.ideas2it.address.model.Address -> Address 


 [INFO][http-nio-8080-exec-1] 13 Oct 2017 17:49:31 256 -- Reading mappings from resource : hibernate/model/Project.hbm.xml 


 [INFO][http-nio-8080-exec-1] 13 Oct 2017 17:49:32 434 -- Mapping class: com.ideas2it.project.model.Project -> Project 


 [INFO][http-nio-8080-exec-1] 13 Oct 2017 17:49:32 434 -- Mapping collection: com.ideas2it.project.model.Project.employees -> EmployeeProject 


 [INFO][http-nio-8080-exec-1] 13 Oct 2017 17:49:32 435 -- Configured SessionFactory: null 


 [INFO][http-nio-8080-exec-1] 13 Oct 2017 17:49:32 435 -- Mapping collection: com.ideas2it.employee.model.Employee.addresses -> Address 


 [INFO][http-nio-8080-exec-1] 13 Oct 2017 17:49:32 436 -- Mapping collection: com.ideas2it.client.model.Client.addresses -> Address 


 [INFO][http-nio-8080-exec-1] 13 Oct 2017 17:49:32 436 -- Mapping collection: com.ideas2it.client.model.Client.projects -> Project 


 [INFO][http-nio-8080-exec-1] 13 Oct 2017 17:49:32 439 -- Using Hibernate built-in connection pool (not for production use!) 


 [INFO][http-nio-8080-exec-1] 13 Oct 2017 17:49:32 439 -- Hibernate connection pool size: 20 


 [INFO][http-nio-8080-exec-1] 13 Oct 2017 17:49:32 439 -- autocommit mode: false 


 [INFO][http-nio-8080-exec-1] 13 Oct 2017 17:49:32 441 -- using driver: com.mysql.jdbc.Driver at URL: jdbc:mysql://localhost:3306/CompanyManagement 


 [INFO][http-nio-8080-exec-1] 13 Oct 2017 17:49:32 442 -- connection properties: {user=root, password=****} 


 [INFO][http-nio-8080-exec-1] 13 Oct 2017 17:49:32 609 -- RDBMS: MySQL, version: 5.7.19-0ubuntu0.16.04.1 


 [INFO][http-nio-8080-exec-1] 13 Oct 2017 17:49:32 609 -- JDBC driver: MySQL-AB JDBC Driver, version: mysql-connector-java-5.1.5 ( Revision: ${svn.Revision} ) 


 [INFO][http-nio-8080-exec-1] 13 Oct 2017 17:49:32 617 -- Using dialect: org.hibernate.dialect.MySQLDialect 


 [INFO][http-nio-8080-exec-1] 13 Oct 2017 17:49:32 618 -- Using default transaction strategy (direct JDBC transactions) 


 [INFO][http-nio-8080-exec-1] 13 Oct 2017 17:49:32 619 -- No TransactionManagerLookup configured (in JTA environment, use of read-write or transactional second-level cache is not recommended) 


 [INFO][http-nio-8080-exec-1] 13 Oct 2017 17:49:32 619 -- Automatic flush during beforeCompletion(): disabled 


 [INFO][http-nio-8080-exec-1] 13 Oct 2017 17:49:32 619 -- Automatic session close at end of transaction: disabled 


 [INFO][http-nio-8080-exec-1] 13 Oct 2017 17:49:32 619 -- JDBC batch size: 15 


 [INFO][http-nio-8080-exec-1] 13 Oct 2017 17:49:32 619 -- JDBC batch updates for versioned data: disabled 


 [INFO][http-nio-8080-exec-1] 13 Oct 2017 17:49:32 620 -- Scrollable result sets: enabled 


 [INFO][http-nio-8080-exec-1] 13 Oct 2017 17:49:32 620 -- JDBC3 getGeneratedKeys(): enabled 


 [INFO][http-nio-8080-exec-1] 13 Oct 2017 17:49:32 620 -- Connection release mode: auto 


 [INFO][http-nio-8080-exec-1] 13 Oct 2017 17:49:32 620 -- Maximum outer join fetch depth: 2 


 [INFO][http-nio-8080-exec-1] 13 Oct 2017 17:49:32 620 -- Default batch fetch size: 1 


 [INFO][http-nio-8080-exec-1] 13 Oct 2017 17:49:32 620 -- Generate SQL with comments: disabled 


 [INFO][http-nio-8080-exec-1] 13 Oct 2017 17:49:32 620 -- Order SQL updates by primary key: disabled 


 [INFO][http-nio-8080-exec-1] 13 Oct 2017 17:49:32 620 -- Query translator: org.hibernate.hql.ast.ASTQueryTranslatorFactory 


 [INFO][http-nio-8080-exec-1] 13 Oct 2017 17:49:32 621 -- Using ASTQueryTranslatorFactory 


 [INFO][http-nio-8080-exec-1] 13 Oct 2017 17:49:32 621 -- Query language substitutions: {} 


 [INFO][http-nio-8080-exec-1] 13 Oct 2017 17:49:32 621 -- JPA-QL strict compliance: disabled 


 [INFO][http-nio-8080-exec-1] 13 Oct 2017 17:49:32 621 -- Second-level cache: enabled 


 [INFO][http-nio-8080-exec-1] 13 Oct 2017 17:49:32 621 -- Query cache: disabled 


 [INFO][http-nio-8080-exec-1] 13 Oct 2017 17:49:32 621 -- Cache provider: org.hibernate.cache.NoCacheProvider 


 [INFO][http-nio-8080-exec-1] 13 Oct 2017 17:49:32 621 -- Optimize cache for minimal puts: disabled 


 [INFO][http-nio-8080-exec-1] 13 Oct 2017 17:49:32 621 -- Structured second-level cache entries: disabled 


 [INFO][http-nio-8080-exec-1] 13 Oct 2017 17:49:32 625 -- Echoing all SQL to stdout 


 [INFO][http-nio-8080-exec-1] 13 Oct 2017 17:49:32 625 -- Statistics: disabled 


 [INFO][http-nio-8080-exec-1] 13 Oct 2017 17:49:32 625 -- Deleted entity synthetic identifier rollback: disabled 


 [INFO][http-nio-8080-exec-1] 13 Oct 2017 17:49:32 625 -- Default entity-mode: pojo 


 [INFO][http-nio-8080-exec-1] 13 Oct 2017 17:49:32 638 -- building session factory 


 [INFO][http-nio-8080-exec-1] 13 Oct 2017 17:49:32 790 -- Not binding factory to JNDI, no JNDI name configured 


 [INFO][http-nio-8080-exec-1] 13 Oct 2017 17:52:27 305 -- Hibernate 3.2.1 


 [INFO][http-nio-8080-exec-1] 13 Oct 2017 17:52:27 307 -- hibernate.properties not found 


 [INFO][http-nio-8080-exec-1] 13 Oct 2017 17:52:27 308 -- Bytecode provider name : cglib 


 [INFO][http-nio-8080-exec-1] 13 Oct 2017 17:52:27 309 -- using JDK 1.4 java.sql.Timestamp handling 


 [INFO][http-nio-8080-exec-1] 13 Oct 2017 17:52:27 327 -- configuring from resource: hibernate/configuration/hibernate.cfg.xml 


 [INFO][http-nio-8080-exec-1] 13 Oct 2017 17:52:27 327 -- Configuration resource: hibernate/configuration/hibernate.cfg.xml 


 [INFO][http-nio-8080-exec-1] 13 Oct 2017 17:52:34 024 -- Reading mappings from resource : hibernate/model/Employee.hbm.xml 


 [INFO][http-nio-8080-exec-1] 13 Oct 2017 17:52:35 235 -- Mapping class: com.ideas2it.employee.model.Employee -> Employee 


 [INFO][http-nio-8080-exec-1] 13 Oct 2017 17:52:35 243 -- Mapping collection: com.ideas2it.employee.model.Employee.projects -> EmployeeProject 


 [INFO][http-nio-8080-exec-1] 13 Oct 2017 17:52:35 243 -- Reading mappings from resource : hibernate/model/Client.hbm.xml 


 [INFO][http-nio-8080-exec-1] 13 Oct 2017 17:52:36 131 -- Mapping class: com.ideas2it.client.model.Client -> Client 


 [INFO][http-nio-8080-exec-1] 13 Oct 2017 17:52:36 131 -- Reading mappings from resource : hibernate/model/Address.hbm.xml 


 [INFO][http-nio-8080-exec-1] 13 Oct 2017 17:52:37 035 -- Mapping class: com.ideas2it.address.model.Address -> Address 


 [INFO][http-nio-8080-exec-1] 13 Oct 2017 17:52:37 058 -- Reading mappings from resource : hibernate/model/Project.hbm.xml 


 [INFO][http-nio-8080-exec-1] 13 Oct 2017 17:52:37 668 -- Mapping class: com.ideas2it.project.model.Project -> Project 


 [INFO][http-nio-8080-exec-1] 13 Oct 2017 17:52:37 668 -- Mapping collection: com.ideas2it.project.model.Project.employees -> EmployeeProject 


 [INFO][http-nio-8080-exec-1] 13 Oct 2017 17:52:37 668 -- Configured SessionFactory: null 


 [INFO][http-nio-8080-exec-1] 13 Oct 2017 17:52:37 669 -- Mapping collection: com.ideas2it.employee.model.Employee.addresses -> Address 


 [INFO][http-nio-8080-exec-1] 13 Oct 2017 17:52:37 670 -- Mapping collection: com.ideas2it.client.model.Client.addresses -> Address 


 [INFO][http-nio-8080-exec-1] 13 Oct 2017 17:52:37 670 -- Mapping collection: com.ideas2it.client.model.Client.projects -> Project 


 [INFO][http-nio-8080-exec-1] 13 Oct 2017 17:52:37 674 -- Using Hibernate built-in connection pool (not for production use!) 


 [INFO][http-nio-8080-exec-1] 13 Oct 2017 17:52:37 674 -- Hibernate connection pool size: 20 


 [INFO][http-nio-8080-exec-1] 13 Oct 2017 17:52:37 675 -- autocommit mode: false 


 [INFO][http-nio-8080-exec-1] 13 Oct 2017 17:52:37 677 -- using driver: com.mysql.jdbc.Driver at URL: jdbc:mysql://localhost:3306/CompanyManagement 


 [INFO][http-nio-8080-exec-1] 13 Oct 2017 17:52:37 677 -- connection properties: {user=root, password=****} 


 [INFO][http-nio-8080-exec-1] 13 Oct 2017 17:52:37 844 -- RDBMS: MySQL, version: 5.7.19-0ubuntu0.16.04.1 


 [INFO][http-nio-8080-exec-1] 13 Oct 2017 17:52:37 844 -- JDBC driver: MySQL-AB JDBC Driver, version: mysql-connector-java-5.1.5 ( Revision: ${svn.Revision} ) 


 [INFO][http-nio-8080-exec-1] 13 Oct 2017 17:52:37 851 -- Using dialect: org.hibernate.dialect.MySQLDialect 


 [INFO][http-nio-8080-exec-1] 13 Oct 2017 17:52:37 853 -- Using default transaction strategy (direct JDBC transactions) 


 [INFO][http-nio-8080-exec-1] 13 Oct 2017 17:52:37 853 -- No TransactionManagerLookup configured (in JTA environment, use of read-write or transactional second-level cache is not recommended) 


 [INFO][http-nio-8080-exec-1] 13 Oct 2017 17:52:37 853 -- Automatic flush during beforeCompletion(): disabled 


 [INFO][http-nio-8080-exec-1] 13 Oct 2017 17:52:37 853 -- Automatic session close at end of transaction: disabled 


 [INFO][http-nio-8080-exec-1] 13 Oct 2017 17:52:37 853 -- JDBC batch size: 15 


 [INFO][http-nio-8080-exec-1] 13 Oct 2017 17:52:37 854 -- JDBC batch updates for versioned data: disabled 


 [INFO][http-nio-8080-exec-1] 13 Oct 2017 17:52:37 854 -- Scrollable result sets: enabled 


 [INFO][http-nio-8080-exec-1] 13 Oct 2017 17:52:37 854 -- JDBC3 getGeneratedKeys(): enabled 


 [INFO][http-nio-8080-exec-1] 13 Oct 2017 17:52:37 854 -- Connection release mode: auto 


 [INFO][http-nio-8080-exec-1] 13 Oct 2017 17:52:37 854 -- Maximum outer join fetch depth: 2 


 [INFO][http-nio-8080-exec-1] 13 Oct 2017 17:52:37 854 -- Default batch fetch size: 1 


 [INFO][http-nio-8080-exec-1] 13 Oct 2017 17:52:37 854 -- Generate SQL with comments: disabled 


 [INFO][http-nio-8080-exec-1] 13 Oct 2017 17:52:37 854 -- Order SQL updates by primary key: disabled 


 [INFO][http-nio-8080-exec-1] 13 Oct 2017 17:52:37 854 -- Query translator: org.hibernate.hql.ast.ASTQueryTranslatorFactory 


 [INFO][http-nio-8080-exec-1] 13 Oct 2017 17:52:37 856 -- Using ASTQueryTranslatorFactory 


 [INFO][http-nio-8080-exec-1] 13 Oct 2017 17:52:37 856 -- Query language substitutions: {} 


 [INFO][http-nio-8080-exec-1] 13 Oct 2017 17:52:37 856 -- JPA-QL strict compliance: disabled 


 [INFO][http-nio-8080-exec-1] 13 Oct 2017 17:52:37 856 -- Second-level cache: enabled 


 [INFO][http-nio-8080-exec-1] 13 Oct 2017 17:52:37 856 -- Query cache: disabled 


 [INFO][http-nio-8080-exec-1] 13 Oct 2017 17:52:37 857 -- Cache provider: org.hibernate.cache.NoCacheProvider 


 [INFO][http-nio-8080-exec-1] 13 Oct 2017 17:52:37 857 -- Optimize cache for minimal puts: disabled 


 [INFO][http-nio-8080-exec-1] 13 Oct 2017 17:52:37 857 -- Structured second-level cache entries: disabled 


 [INFO][http-nio-8080-exec-1] 13 Oct 2017 17:52:37 859 -- Echoing all SQL to stdout 


 [INFO][http-nio-8080-exec-1] 13 Oct 2017 17:52:37 859 -- Statistics: disabled 


 [INFO][http-nio-8080-exec-1] 13 Oct 2017 17:52:37 859 -- Deleted entity synthetic identifier rollback: disabled 


 [INFO][http-nio-8080-exec-1] 13 Oct 2017 17:52:37 859 -- Default entity-mode: pojo 


 [INFO][http-nio-8080-exec-1] 13 Oct 2017 17:52:37 872 -- building session factory 


 [INFO][http-nio-8080-exec-1] 13 Oct 2017 17:52:37 999 -- Not binding factory to JNDI, no JNDI name configured 


 [INFO][http-nio-8080-exec-2] 13 Oct 2017 19:20:28 231 -- Hibernate 3.2.1 


 [INFO][http-nio-8080-exec-2] 13 Oct 2017 19:20:28 233 -- hibernate.properties not found 


 [INFO][http-nio-8080-exec-2] 13 Oct 2017 19:20:28 234 -- Bytecode provider name : cglib 


 [INFO][http-nio-8080-exec-2] 13 Oct 2017 19:20:28 236 -- using JDK 1.4 java.sql.Timestamp handling 


 [INFO][http-nio-8080-exec-2] 13 Oct 2017 19:20:28 254 -- configuring from resource: hibernate/configuration/hibernate.cfg.xml 


 [INFO][http-nio-8080-exec-2] 13 Oct 2017 19:20:28 254 -- Configuration resource: hibernate/configuration/hibernate.cfg.xml 


 [INFO][http-nio-8080-exec-2] 13 Oct 2017 19:20:29 520 -- Reading mappings from resource : hibernate/model/Employee.hbm.xml 


 [INFO][http-nio-8080-exec-2] 13 Oct 2017 19:20:30 455 -- Mapping class: com.ideas2it.employee.model.Employee -> Employee 


 [INFO][http-nio-8080-exec-2] 13 Oct 2017 19:20:30 462 -- Mapping collection: com.ideas2it.employee.model.Employee.projects -> EmployeeProject 


 [INFO][http-nio-8080-exec-2] 13 Oct 2017 19:20:30 462 -- Reading mappings from resource : hibernate/model/Client.hbm.xml 


 [INFO][http-nio-8080-exec-2] 13 Oct 2017 19:20:31 368 -- Mapping class: com.ideas2it.client.model.Client -> Client 


 [INFO][http-nio-8080-exec-2] 13 Oct 2017 19:20:31 369 -- Reading mappings from resource : hibernate/model/Address.hbm.xml 


 [INFO][http-nio-8080-exec-2] 13 Oct 2017 19:20:31 994 -- Mapping class: com.ideas2it.address.model.Address -> Address 


 [INFO][http-nio-8080-exec-2] 13 Oct 2017 19:20:32 017 -- Reading mappings from resource : hibernate/model/Project.hbm.xml 


 [INFO][http-nio-8080-exec-2] 13 Oct 2017 19:20:33 390 -- Mapping class: com.ideas2it.project.model.Project -> Project 


 [INFO][http-nio-8080-exec-2] 13 Oct 2017 19:20:33 391 -- Mapping collection: com.ideas2it.project.model.Project.employees -> EmployeeProject 


 [INFO][http-nio-8080-exec-2] 13 Oct 2017 19:20:33 391 -- Configured SessionFactory: null 


 [INFO][http-nio-8080-exec-2] 13 Oct 2017 19:20:33 392 -- Mapping collection: com.ideas2it.employee.model.Employee.addresses -> Address 


 [INFO][http-nio-8080-exec-2] 13 Oct 2017 19:20:33 392 -- Mapping collection: com.ideas2it.client.model.Client.addresses -> Address 


 [INFO][http-nio-8080-exec-2] 13 Oct 2017 19:20:33 392 -- Mapping collection: com.ideas2it.client.model.Client.projects -> Project 


 [INFO][http-nio-8080-exec-2] 13 Oct 2017 19:20:33 396 -- Using Hibernate built-in connection pool (not for production use!) 


 [INFO][http-nio-8080-exec-2] 13 Oct 2017 19:20:33 396 -- Hibernate connection pool size: 20 


 [INFO][http-nio-8080-exec-2] 13 Oct 2017 19:20:33 396 -- autocommit mode: false 


 [INFO][http-nio-8080-exec-2] 13 Oct 2017 19:20:33 397 -- using driver: com.mysql.jdbc.Driver at URL: jdbc:mysql://localhost:3306/CompanyManagement 


 [INFO][http-nio-8080-exec-2] 13 Oct 2017 19:20:33 397 -- connection properties: {user=root, password=****} 


 [INFO][http-nio-8080-exec-2] 13 Oct 2017 19:20:33 563 -- RDBMS: MySQL, version: 5.7.19-0ubuntu0.16.04.1 


 [INFO][http-nio-8080-exec-2] 13 Oct 2017 19:20:33 563 -- JDBC driver: MySQL-AB JDBC Driver, version: mysql-connector-java-5.1.5 ( Revision: ${svn.Revision} ) 


 [INFO][http-nio-8080-exec-2] 13 Oct 2017 19:20:33 571 -- Using dialect: org.hibernate.dialect.MySQLDialect 


 [INFO][http-nio-8080-exec-2] 13 Oct 2017 19:20:33 575 -- Using default transaction strategy (direct JDBC transactions) 


 [INFO][http-nio-8080-exec-2] 13 Oct 2017 19:20:33 576 -- No TransactionManagerLookup configured (in JTA environment, use of read-write or transactional second-level cache is not recommended) 


 [INFO][http-nio-8080-exec-2] 13 Oct 2017 19:20:33 576 -- Automatic flush during beforeCompletion(): disabled 


 [INFO][http-nio-8080-exec-2] 13 Oct 2017 19:20:33 576 -- Automatic session close at end of transaction: disabled 


 [INFO][http-nio-8080-exec-2] 13 Oct 2017 19:20:33 576 -- JDBC batch size: 15 


 [INFO][http-nio-8080-exec-2] 13 Oct 2017 19:20:33 577 -- JDBC batch updates for versioned data: disabled 


 [INFO][http-nio-8080-exec-2] 13 Oct 2017 19:20:33 577 -- Scrollable result sets: enabled 


 [INFO][http-nio-8080-exec-2] 13 Oct 2017 19:20:33 577 -- JDBC3 getGeneratedKeys(): enabled 


 [INFO][http-nio-8080-exec-2] 13 Oct 2017 19:20:33 577 -- Connection release mode: auto 


 [INFO][http-nio-8080-exec-2] 13 Oct 2017 19:20:33 577 -- Maximum outer join fetch depth: 2 


 [INFO][http-nio-8080-exec-2] 13 Oct 2017 19:20:33 577 -- Default batch fetch size: 1 


 [INFO][http-nio-8080-exec-2] 13 Oct 2017 19:20:33 577 -- Generate SQL with comments: disabled 


 [INFO][http-nio-8080-exec-2] 13 Oct 2017 19:20:33 577 -- Order SQL updates by primary key: disabled 


 [INFO][http-nio-8080-exec-2] 13 Oct 2017 19:20:33 578 -- Query translator: org.hibernate.hql.ast.ASTQueryTranslatorFactory 


 [INFO][http-nio-8080-exec-2] 13 Oct 2017 19:20:33 578 -- Using ASTQueryTranslatorFactory 


 [INFO][http-nio-8080-exec-2] 13 Oct 2017 19:20:33 578 -- Query language substitutions: {} 


 [INFO][http-nio-8080-exec-2] 13 Oct 2017 19:20:33 578 -- JPA-QL strict compliance: disabled 


 [INFO][http-nio-8080-exec-2] 13 Oct 2017 19:20:33 579 -- Second-level cache: enabled 


 [INFO][http-nio-8080-exec-2] 13 Oct 2017 19:20:33 579 -- Query cache: disabled 


 [INFO][http-nio-8080-exec-2] 13 Oct 2017 19:20:33 579 -- Cache provider: org.hibernate.cache.NoCacheProvider 


 [INFO][http-nio-8080-exec-2] 13 Oct 2017 19:20:33 579 -- Optimize cache for minimal puts: disabled 


 [INFO][http-nio-8080-exec-2] 13 Oct 2017 19:20:33 579 -- Structured second-level cache entries: disabled 


 [INFO][http-nio-8080-exec-2] 13 Oct 2017 19:20:33 581 -- Echoing all SQL to stdout 


 [INFO][http-nio-8080-exec-2] 13 Oct 2017 19:20:33 581 -- Statistics: disabled 


 [INFO][http-nio-8080-exec-2] 13 Oct 2017 19:20:33 581 -- Deleted entity synthetic identifier rollback: disabled 


 [INFO][http-nio-8080-exec-2] 13 Oct 2017 19:20:33 581 -- Default entity-mode: pojo 


 [INFO][http-nio-8080-exec-2] 13 Oct 2017 19:20:33 593 -- building session factory 


 [INFO][http-nio-8080-exec-2] 13 Oct 2017 19:20:33 723 -- Not binding factory to JNDI, no JNDI name configured 


 [INFO][http-nio-8080-exec-1] 13 Oct 2017 19:33:04 784 -- Hibernate 3.2.1 


 [INFO][http-nio-8080-exec-1] 13 Oct 2017 19:33:04 786 -- hibernate.properties not found 


 [INFO][http-nio-8080-exec-1] 13 Oct 2017 19:33:04 787 -- Bytecode provider name : cglib 


 [INFO][http-nio-8080-exec-1] 13 Oct 2017 19:33:04 788 -- using JDK 1.4 java.sql.Timestamp handling 


 [INFO][http-nio-8080-exec-1] 13 Oct 2017 19:33:04 808 -- configuring from resource: hibernate/configuration/hibernate.cfg.xml 


 [INFO][http-nio-8080-exec-1] 13 Oct 2017 19:33:04 808 -- Configuration resource: hibernate/configuration/hibernate.cfg.xml 


 [INFO][http-nio-8080-exec-1] 13 Oct 2017 19:33:08 230 -- Reading mappings from resource : hibernate/model/Employee.hbm.xml 


 [INFO][http-nio-8080-exec-1] 13 Oct 2017 19:33:14 651 -- Mapping class: com.ideas2it.employee.model.Employee -> Employee 


 [INFO][http-nio-8080-exec-1] 13 Oct 2017 19:33:14 658 -- Mapping collection: com.ideas2it.employee.model.Employee.projects -> EmployeeProject 


 [INFO][http-nio-8080-exec-1] 13 Oct 2017 19:33:14 658 -- Reading mappings from resource : hibernate/model/Client.hbm.xml 


 [INFO][http-nio-8080-exec-1] 13 Oct 2017 19:33:18 852 -- Mapping class: com.ideas2it.client.model.Client -> Client 


 [INFO][http-nio-8080-exec-1] 13 Oct 2017 19:33:18 853 -- Reading mappings from resource : hibernate/model/Address.hbm.xml 


 [INFO][http-nio-8080-exec-1] 13 Oct 2017 19:33:24 635 -- Mapping class: com.ideas2it.address.model.Address -> Address 


 [INFO][http-nio-8080-exec-1] 13 Oct 2017 19:33:24 661 -- Reading mappings from resource : hibernate/model/Project.hbm.xml 


 [INFO][http-nio-8080-exec-1] 13 Oct 2017 19:33:26 736 -- Mapping class: com.ideas2it.project.model.Project -> Project 


 [INFO][http-nio-8080-exec-1] 13 Oct 2017 19:33:26 736 -- Mapping collection: com.ideas2it.project.model.Project.employees -> EmployeeProject 


 [INFO][http-nio-8080-exec-1] 13 Oct 2017 19:33:26 736 -- Configured SessionFactory: null 


 [INFO][http-nio-8080-exec-1] 13 Oct 2017 19:33:26 737 -- Mapping collection: com.ideas2it.employee.model.Employee.addresses -> Address 


 [INFO][http-nio-8080-exec-1] 13 Oct 2017 19:33:26 737 -- Mapping collection: com.ideas2it.client.model.Client.addresses -> Address 


 [INFO][http-nio-8080-exec-1] 13 Oct 2017 19:33:26 737 -- Mapping collection: com.ideas2it.client.model.Client.projects -> Project 


 [INFO][http-nio-8080-exec-1] 13 Oct 2017 19:33:26 741 -- Using Hibernate built-in connection pool (not for production use!) 


 [INFO][http-nio-8080-exec-1] 13 Oct 2017 19:33:26 741 -- Hibernate connection pool size: 20 


 [INFO][http-nio-8080-exec-1] 13 Oct 2017 19:33:26 741 -- autocommit mode: false 


 [INFO][http-nio-8080-exec-1] 13 Oct 2017 19:33:26 743 -- using driver: com.mysql.jdbc.Driver at URL: jdbc:mysql://localhost:3306/CompanyManagement 


 [INFO][http-nio-8080-exec-1] 13 Oct 2017 19:33:26 743 -- connection properties: {user=root, password=****} 


 [INFO][http-nio-8080-exec-1] 13 Oct 2017 19:33:26 935 -- RDBMS: MySQL, version: 5.7.19-0ubuntu0.16.04.1 


 [INFO][http-nio-8080-exec-1] 13 Oct 2017 19:33:26 936 -- JDBC driver: MySQL-AB JDBC Driver, version: mysql-connector-java-5.1.5 ( Revision: ${svn.Revision} ) 


 [INFO][http-nio-8080-exec-1] 13 Oct 2017 19:33:26 945 -- Using dialect: org.hibernate.dialect.MySQLDialect 


 [INFO][http-nio-8080-exec-1] 13 Oct 2017 19:33:26 948 -- Using default transaction strategy (direct JDBC transactions) 


 [INFO][http-nio-8080-exec-1] 13 Oct 2017 19:33:26 948 -- No TransactionManagerLookup configured (in JTA environment, use of read-write or transactional second-level cache is not recommended) 


 [INFO][http-nio-8080-exec-1] 13 Oct 2017 19:33:26 949 -- Automatic flush during beforeCompletion(): disabled 


 [INFO][http-nio-8080-exec-1] 13 Oct 2017 19:33:26 949 -- Automatic session close at end of transaction: disabled 


 [INFO][http-nio-8080-exec-1] 13 Oct 2017 19:33:26 949 -- JDBC batch size: 15 


 [INFO][http-nio-8080-exec-1] 13 Oct 2017 19:33:26 949 -- JDBC batch updates for versioned data: disabled 


 [INFO][http-nio-8080-exec-1] 13 Oct 2017 19:33:26 949 -- Scrollable result sets: enabled 


 [INFO][http-nio-8080-exec-1] 13 Oct 2017 19:33:26 949 -- JDBC3 getGeneratedKeys(): enabled 


 [INFO][http-nio-8080-exec-1] 13 Oct 2017 19:33:26 949 -- Connection release mode: auto 


 [INFO][http-nio-8080-exec-1] 13 Oct 2017 19:33:26 949 -- Maximum outer join fetch depth: 2 


 [INFO][http-nio-8080-exec-1] 13 Oct 2017 19:33:26 949 -- Default batch fetch size: 1 


 [INFO][http-nio-8080-exec-1] 13 Oct 2017 19:33:26 950 -- Generate SQL with comments: disabled 


 [INFO][http-nio-8080-exec-1] 13 Oct 2017 19:33:26 950 -- Order SQL updates by primary key: disabled 


 [INFO][http-nio-8080-exec-1] 13 Oct 2017 19:33:26 950 -- Query translator: org.hibernate.hql.ast.ASTQueryTranslatorFactory 


 [INFO][http-nio-8080-exec-1] 13 Oct 2017 19:33:26 950 -- Using ASTQueryTranslatorFactory 


 [INFO][http-nio-8080-exec-1] 13 Oct 2017 19:33:26 950 -- Query language substitutions: {} 


 [INFO][http-nio-8080-exec-1] 13 Oct 2017 19:33:26 951 -- JPA-QL strict compliance: disabled 


 [INFO][http-nio-8080-exec-1] 13 Oct 2017 19:33:26 951 -- Second-level cache: enabled 


 [INFO][http-nio-8080-exec-1] 13 Oct 2017 19:33:26 951 -- Query cache: disabled 


 [INFO][http-nio-8080-exec-1] 13 Oct 2017 19:33:26 951 -- Cache provider: org.hibernate.cache.NoCacheProvider 


 [INFO][http-nio-8080-exec-1] 13 Oct 2017 19:33:26 951 -- Optimize cache for minimal puts: disabled 


 [INFO][http-nio-8080-exec-1] 13 Oct 2017 19:33:26 951 -- Structured second-level cache entries: disabled 


 [INFO][http-nio-8080-exec-1] 13 Oct 2017 19:33:26 952 -- Echoing all SQL to stdout 


 [INFO][http-nio-8080-exec-1] 13 Oct 2017 19:33:26 952 -- Statistics: disabled 


 [INFO][http-nio-8080-exec-1] 13 Oct 2017 19:33:26 952 -- Deleted entity synthetic identifier rollback: disabled 


 [INFO][http-nio-8080-exec-1] 13 Oct 2017 19:33:26 952 -- Default entity-mode: pojo 


 [INFO][http-nio-8080-exec-1] 13 Oct 2017 19:33:26 971 -- building session factory 


 [INFO][http-nio-8080-exec-1] 13 Oct 2017 19:33:27 121 -- Not binding factory to JNDI, no JNDI name configured 


 [INFO][http-nio-8080-exec-1] 13 Oct 2017 19:53:59 369 -- Hibernate 3.2.1 


 [INFO][http-nio-8080-exec-1] 13 Oct 2017 19:53:59 371 -- hibernate.properties not found 


 [INFO][http-nio-8080-exec-1] 13 Oct 2017 19:53:59 372 -- Bytecode provider name : cglib 


 [INFO][http-nio-8080-exec-1] 13 Oct 2017 19:53:59 373 -- using JDK 1.4 java.sql.Timestamp handling 


 [INFO][http-nio-8080-exec-1] 13 Oct 2017 19:53:59 411 -- configuring from resource: hibernate/configuration/hibernate.cfg.xml 


 [INFO][http-nio-8080-exec-1] 13 Oct 2017 19:53:59 411 -- Configuration resource: hibernate/configuration/hibernate.cfg.xml 


 [INFO][http-nio-8080-exec-1] 13 Oct 2017 19:54:01 947 -- Reading mappings from resource : hibernate/model/Employee.hbm.xml 


 [INFO][http-nio-8080-exec-1] 13 Oct 2017 19:54:02 893 -- Mapping class: com.ideas2it.employee.model.Employee -> Employee 


 [INFO][http-nio-8080-exec-1] 13 Oct 2017 19:54:02 901 -- Mapping collection: com.ideas2it.employee.model.Employee.projects -> EmployeeProject 


 [INFO][http-nio-8080-exec-1] 13 Oct 2017 19:54:02 901 -- Reading mappings from resource : hibernate/model/Client.hbm.xml 


 [INFO][http-nio-8080-exec-1] 13 Oct 2017 19:54:03 808 -- Mapping class: com.ideas2it.client.model.Client -> Client 


 [INFO][http-nio-8080-exec-1] 13 Oct 2017 19:54:03 808 -- Reading mappings from resource : hibernate/model/Address.hbm.xml 


 [INFO][http-nio-8080-exec-1] 13 Oct 2017 19:54:04 417 -- Mapping class: com.ideas2it.address.model.Address -> Address 


 [INFO][http-nio-8080-exec-1] 13 Oct 2017 19:54:04 439 -- Reading mappings from resource : hibernate/model/Project.hbm.xml 


 [INFO][http-nio-8080-exec-1] 13 Oct 2017 19:54:05 052 -- Mapping class: com.ideas2it.project.model.Project -> Project 


 [INFO][http-nio-8080-exec-1] 13 Oct 2017 19:54:05 053 -- Mapping collection: com.ideas2it.project.model.Project.employees -> EmployeeProject 


 [INFO][http-nio-8080-exec-1] 13 Oct 2017 19:54:05 053 -- Configured SessionFactory: null 


 [INFO][http-nio-8080-exec-1] 13 Oct 2017 19:54:05 053 -- Mapping collection: com.ideas2it.employee.model.Employee.addresses -> Address 


 [INFO][http-nio-8080-exec-1] 13 Oct 2017 19:54:05 054 -- Mapping collection: com.ideas2it.client.model.Client.addresses -> Address 


 [INFO][http-nio-8080-exec-1] 13 Oct 2017 19:54:05 054 -- Mapping collection: com.ideas2it.client.model.Client.projects -> Project 


 [INFO][http-nio-8080-exec-1] 13 Oct 2017 19:54:05 060 -- Using Hibernate built-in connection pool (not for production use!) 


 [INFO][http-nio-8080-exec-1] 13 Oct 2017 19:54:05 060 -- Hibernate connection pool size: 20 


 [INFO][http-nio-8080-exec-1] 13 Oct 2017 19:54:05 060 -- autocommit mode: false 


 [INFO][http-nio-8080-exec-1] 13 Oct 2017 19:54:05 061 -- using driver: com.mysql.jdbc.Driver at URL: jdbc:mysql://localhost:3306/CompanyManagement 


 [INFO][http-nio-8080-exec-1] 13 Oct 2017 19:54:05 061 -- connection properties: {user=root, password=****} 


 [INFO][http-nio-8080-exec-1] 13 Oct 2017 19:54:05 226 -- RDBMS: MySQL, version: 5.7.19-0ubuntu0.16.04.1 


 [INFO][http-nio-8080-exec-1] 13 Oct 2017 19:54:05 227 -- JDBC driver: MySQL-AB JDBC Driver, version: mysql-connector-java-5.1.5 ( Revision: ${svn.Revision} ) 


 [INFO][http-nio-8080-exec-1] 13 Oct 2017 19:54:05 234 -- Using dialect: org.hibernate.dialect.MySQLDialect 


 [INFO][http-nio-8080-exec-1] 13 Oct 2017 19:54:05 236 -- Using default transaction strategy (direct JDBC transactions) 


 [INFO][http-nio-8080-exec-1] 13 Oct 2017 19:54:05 237 -- No TransactionManagerLookup configured (in JTA environment, use of read-write or transactional second-level cache is not recommended) 


 [INFO][http-nio-8080-exec-1] 13 Oct 2017 19:54:05 237 -- Automatic flush during beforeCompletion(): disabled 


 [INFO][http-nio-8080-exec-1] 13 Oct 2017 19:54:05 237 -- Automatic session close at end of transaction: disabled 


 [INFO][http-nio-8080-exec-1] 13 Oct 2017 19:54:05 237 -- JDBC batch size: 15 


 [INFO][http-nio-8080-exec-1] 13 Oct 2017 19:54:05 237 -- JDBC batch updates for versioned data: disabled 


 [INFO][http-nio-8080-exec-1] 13 Oct 2017 19:54:05 238 -- Scrollable result sets: enabled 


 [INFO][http-nio-8080-exec-1] 13 Oct 2017 19:54:05 238 -- JDBC3 getGeneratedKeys(): enabled 


 [INFO][http-nio-8080-exec-1] 13 Oct 2017 19:54:05 238 -- Connection release mode: auto 


 [INFO][http-nio-8080-exec-1] 13 Oct 2017 19:54:05 239 -- Maximum outer join fetch depth: 2 


 [INFO][http-nio-8080-exec-1] 13 Oct 2017 19:54:05 239 -- Default batch fetch size: 1 


 [INFO][http-nio-8080-exec-1] 13 Oct 2017 19:54:05 239 -- Generate SQL with comments: disabled 


 [INFO][http-nio-8080-exec-1] 13 Oct 2017 19:54:05 239 -- Order SQL updates by primary key: disabled 


 [INFO][http-nio-8080-exec-1] 13 Oct 2017 19:54:05 239 -- Query translator: org.hibernate.hql.ast.ASTQueryTranslatorFactory 


 [INFO][http-nio-8080-exec-1] 13 Oct 2017 19:54:05 241 -- Using ASTQueryTranslatorFactory 


 [INFO][http-nio-8080-exec-1] 13 Oct 2017 19:54:05 241 -- Query language substitutions: {} 


 [INFO][http-nio-8080-exec-1] 13 Oct 2017 19:54:05 241 -- JPA-QL strict compliance: disabled 


 [INFO][http-nio-8080-exec-1] 13 Oct 2017 19:54:05 241 -- Second-level cache: enabled 


 [INFO][http-nio-8080-exec-1] 13 Oct 2017 19:54:05 241 -- Query cache: disabled 


 [INFO][http-nio-8080-exec-1] 13 Oct 2017 19:54:05 241 -- Cache provider: org.hibernate.cache.NoCacheProvider 


 [INFO][http-nio-8080-exec-1] 13 Oct 2017 19:54:05 242 -- Optimize cache for minimal puts: disabled 


 [INFO][http-nio-8080-exec-1] 13 Oct 2017 19:54:05 242 -- Structured second-level cache entries: disabled 


 [INFO][http-nio-8080-exec-1] 13 Oct 2017 19:54:05 243 -- Echoing all SQL to stdout 


 [INFO][http-nio-8080-exec-1] 13 Oct 2017 19:54:05 243 -- Statistics: disabled 


 [INFO][http-nio-8080-exec-1] 13 Oct 2017 19:54:05 244 -- Deleted entity synthetic identifier rollback: disabled 


 [INFO][http-nio-8080-exec-1] 13 Oct 2017 19:54:05 244 -- Default entity-mode: pojo 


 [INFO][http-nio-8080-exec-1] 13 Oct 2017 19:54:05 256 -- building session factory 


 [INFO][http-nio-8080-exec-1] 13 Oct 2017 19:54:05 386 -- Not binding factory to JNDI, no JNDI name configured 


 [INFO][http-nio-8080-exec-3] 13 Oct 2017 22:47:50 945 -- Hibernate 3.2.1 


 [INFO][http-nio-8080-exec-3] 13 Oct 2017 22:47:50 947 -- hibernate.properties not found 


 [INFO][http-nio-8080-exec-3] 13 Oct 2017 22:47:50 950 -- Bytecode provider name : cglib 


 [INFO][http-nio-8080-exec-3] 13 Oct 2017 22:47:50 952 -- using JDK 1.4 java.sql.Timestamp handling 


 [INFO][http-nio-8080-exec-3] 13 Oct 2017 22:47:50 977 -- configuring from resource: hibernate/configuration/hibernate.cfg.xml 


 [INFO][http-nio-8080-exec-3] 13 Oct 2017 22:47:50 977 -- Configuration resource: hibernate/configuration/hibernate.cfg.xml 


 [INFO][http-nio-8080-exec-3] 13 Oct 2017 22:47:55 715 -- Reading mappings from resource : hibernate/model/Employee.hbm.xml 


 [INFO][http-nio-8080-exec-3] 13 Oct 2017 22:47:56 640 -- Mapping class: com.ideas2it.employee.model.Employee -> Employee 


 [INFO][http-nio-8080-exec-3] 13 Oct 2017 22:47:56 646 -- Mapping collection: com.ideas2it.employee.model.Employee.projects -> EmployeeProject 


 [INFO][http-nio-8080-exec-3] 13 Oct 2017 22:47:56 647 -- Reading mappings from resource : hibernate/model/Client.hbm.xml 


 [INFO][http-nio-8080-exec-3] 13 Oct 2017 22:47:57 251 -- Mapping class: com.ideas2it.client.model.Client -> Client 


 [INFO][http-nio-8080-exec-3] 13 Oct 2017 22:47:57 252 -- Reading mappings from resource : hibernate/model/Address.hbm.xml 


 [INFO][http-nio-8080-exec-3] 13 Oct 2017 22:47:57 569 -- Mapping class: com.ideas2it.address.model.Address -> Address 


 [INFO][http-nio-8080-exec-3] 13 Oct 2017 22:47:57 595 -- Reading mappings from resource : hibernate/model/Project.hbm.xml 


 [INFO][http-nio-8080-exec-3] 13 Oct 2017 22:47:57 902 -- Mapping class: com.ideas2it.project.model.Project -> Project 


 [INFO][http-nio-8080-exec-3] 13 Oct 2017 22:47:57 902 -- Mapping collection: com.ideas2it.project.model.Project.employees -> EmployeeProject 


 [INFO][http-nio-8080-exec-3] 13 Oct 2017 22:47:57 902 -- Configured SessionFactory: null 


 [INFO][http-nio-8080-exec-3] 13 Oct 2017 22:47:57 903 -- Mapping collection: com.ideas2it.employee.model.Employee.addresses -> Address 


 [INFO][http-nio-8080-exec-3] 13 Oct 2017 22:47:57 903 -- Mapping collection: com.ideas2it.client.model.Client.addresses -> Address 


 [INFO][http-nio-8080-exec-3] 13 Oct 2017 22:47:57 903 -- Mapping collection: com.ideas2it.client.model.Client.projects -> Project 


 [INFO][http-nio-8080-exec-3] 13 Oct 2017 22:47:57 906 -- Using Hibernate built-in connection pool (not for production use!) 


 [INFO][http-nio-8080-exec-3] 13 Oct 2017 22:47:57 907 -- Hibernate connection pool size: 20 


 [INFO][http-nio-8080-exec-3] 13 Oct 2017 22:47:57 907 -- autocommit mode: false 


 [INFO][http-nio-8080-exec-3] 13 Oct 2017 22:47:57 908 -- using driver: com.mysql.jdbc.Driver at URL: jdbc:mysql://localhost:3306/CompanyManagement 


 [INFO][http-nio-8080-exec-3] 13 Oct 2017 22:47:57 908 -- connection properties: {user=root, password=****} 


 [INFO][http-nio-8080-exec-3] 13 Oct 2017 22:47:58 071 -- RDBMS: MySQL, version: 5.7.19-0ubuntu0.16.04.1 


 [INFO][http-nio-8080-exec-3] 13 Oct 2017 22:47:58 071 -- JDBC driver: MySQL-AB JDBC Driver, version: mysql-connector-java-5.1.5 ( Revision: ${svn.Revision} ) 


 [INFO][http-nio-8080-exec-3] 13 Oct 2017 22:47:58 078 -- Using dialect: org.hibernate.dialect.MySQLDialect 


 [INFO][http-nio-8080-exec-3] 13 Oct 2017 22:47:58 080 -- Using default transaction strategy (direct JDBC transactions) 


 [INFO][http-nio-8080-exec-3] 13 Oct 2017 22:47:58 080 -- No TransactionManagerLookup configured (in JTA environment, use of read-write or transactional second-level cache is not recommended) 


 [INFO][http-nio-8080-exec-3] 13 Oct 2017 22:47:58 081 -- Automatic flush during beforeCompletion(): disabled 


 [INFO][http-nio-8080-exec-3] 13 Oct 2017 22:47:58 081 -- Automatic session close at end of transaction: disabled 


 [INFO][http-nio-8080-exec-3] 13 Oct 2017 22:47:58 081 -- JDBC batch size: 15 


 [INFO][http-nio-8080-exec-3] 13 Oct 2017 22:47:58 081 -- JDBC batch updates for versioned data: disabled 


 [INFO][http-nio-8080-exec-3] 13 Oct 2017 22:47:58 081 -- Scrollable result sets: enabled 


 [INFO][http-nio-8080-exec-3] 13 Oct 2017 22:47:58 081 -- JDBC3 getGeneratedKeys(): enabled 


 [INFO][http-nio-8080-exec-3] 13 Oct 2017 22:47:58 081 -- Connection release mode: auto 


 [INFO][http-nio-8080-exec-3] 13 Oct 2017 22:47:58 081 -- Maximum outer join fetch depth: 2 


 [INFO][http-nio-8080-exec-3] 13 Oct 2017 22:47:58 081 -- Default batch fetch size: 1 


 [INFO][http-nio-8080-exec-3] 13 Oct 2017 22:47:58 081 -- Generate SQL with comments: disabled 


 [INFO][http-nio-8080-exec-3] 13 Oct 2017 22:47:58 081 -- Order SQL updates by primary key: disabled 


 [INFO][http-nio-8080-exec-3] 13 Oct 2017 22:47:58 082 -- Query translator: org.hibernate.hql.ast.ASTQueryTranslatorFactory 


 [INFO][http-nio-8080-exec-3] 13 Oct 2017 22:47:58 082 -- Using ASTQueryTranslatorFactory 


 [INFO][http-nio-8080-exec-3] 13 Oct 2017 22:47:58 082 -- Query language substitutions: {} 


 [INFO][http-nio-8080-exec-3] 13 Oct 2017 22:47:58 082 -- JPA-QL strict compliance: disabled 


 [INFO][http-nio-8080-exec-3] 13 Oct 2017 22:47:58 082 -- Second-level cache: enabled 


 [INFO][http-nio-8080-exec-3] 13 Oct 2017 22:47:58 082 -- Query cache: disabled 


 [INFO][http-nio-8080-exec-3] 13 Oct 2017 22:47:58 083 -- Cache provider: org.hibernate.cache.NoCacheProvider 


 [INFO][http-nio-8080-exec-3] 13 Oct 2017 22:47:58 083 -- Optimize cache for minimal puts: disabled 


 [INFO][http-nio-8080-exec-3] 13 Oct 2017 22:47:58 083 -- Structured second-level cache entries: disabled 


 [INFO][http-nio-8080-exec-3] 13 Oct 2017 22:47:58 084 -- Echoing all SQL to stdout 


 [INFO][http-nio-8080-exec-3] 13 Oct 2017 22:47:58 084 -- Statistics: disabled 


 [INFO][http-nio-8080-exec-3] 13 Oct 2017 22:47:58 084 -- Deleted entity synthetic identifier rollback: disabled 


 [INFO][http-nio-8080-exec-3] 13 Oct 2017 22:47:58 084 -- Default entity-mode: pojo 


 [INFO][http-nio-8080-exec-3] 13 Oct 2017 22:47:58 099 -- building session factory 


 [INFO][http-nio-8080-exec-3] 13 Oct 2017 22:47:58 222 -- Not binding factory to JNDI, no JNDI name configured 


 [WARN][http-nio-8080-exec-6] 13 Oct 2017 22:51:07 610 -- SQL Error: 1048, SQLState: 23000 


 [ERROR][http-nio-8080-exec-6] 13 Oct 2017 22:51:07 611 -- Column 'Name' cannot be null 


 [ERROR][http-nio-8080-exec-6] 13 Oct 2017 22:51:07 611 -- Could not synchronize database state with session 
org.hibernate.exception.ConstraintViolationException: Could not execute JDBC batch update
	at org.hibernate.exception.SQLStateConverter.convert(SQLStateConverter.java:71)
	at org.hibernate.exception.JDBCExceptionHelper.convert(JDBCExceptionHelper.java:43)
	at org.hibernate.jdbc.AbstractBatcher.executeBatch(AbstractBatcher.java:249)
	at org.hibernate.jdbc.AbstractBatcher.prepareStatement(AbstractBatcher.java:92)
	at org.hibernate.jdbc.AbstractBatcher.prepareStatement(AbstractBatcher.java:87)
	at org.hibernate.jdbc.AbstractBatcher.prepareBatchStatement(AbstractBatcher.java:218)
	at org.hibernate.persister.entity.AbstractEntityPersister.update(AbstractEntityPersister.java:2304)
	at org.hibernate.persister.entity.AbstractEntityPersister.updateOrInsert(AbstractEntityPersister.java:2257)
	at org.hibernate.persister.entity.AbstractEntityPersister.update(AbstractEntityPersister.java:2557)
	at org.hibernate.action.EntityUpdateAction.execute(EntityUpdateAction.java:92)
	at org.hibernate.engine.ActionQueue.execute(ActionQueue.java:248)
	at org.hibernate.engine.ActionQueue.executeActions(ActionQueue.java:232)
	at org.hibernate.engine.ActionQueue.executeActions(ActionQueue.java:140)
	at org.hibernate.event.def.AbstractFlushingEventListener.performExecutions(AbstractFlushingEventListener.java:298)
	at org.hibernate.event.def.DefaultFlushEventListener.onFlush(DefaultFlushEventListener.java:27)
	at org.hibernate.impl.SessionImpl.flush(SessionImpl.java:1000)
	at org.hibernate.impl.SessionImpl.managedFlush(SessionImpl.java:338)
	at org.hibernate.transaction.JDBCTransaction.commit(JDBCTransaction.java:106)
	at com.ideas2it.client.dao.impl.ClientDaoImpl.updateClientDetails(ClientDaoImpl.java:159)
	at com.ideas2it.client.service.impl.ClientServiceImpl.modifyClient(ClientServiceImpl.java:63)
	at com.ideas2it.client.controller.ClientController.updateClient(ClientController.java:246)
	at com.ideas2it.client.controller.ClientController.doGet(ClientController.java:59)
	at javax.servlet.http.HttpServlet.service(HttpServlet.java:635)
	at javax.servlet.http.HttpServlet.service(HttpServlet.java:742)
	at org.apache.catalina.core.ApplicationFilterChain.internalDoFilter(ApplicationFilterChain.java:231)
	at org.apache.catalina.core.ApplicationFilterChain.doFilter(ApplicationFilterChain.java:166)
	at org.apache.tomcat.websocket.server.WsFilter.doFilter(WsFilter.java:52)
	at org.apache.catalina.core.ApplicationFilterChain.internalDoFilter(ApplicationFilterChain.java:193)
	at org.apache.catalina.core.ApplicationFilterChain.doFilter(ApplicationFilterChain.java:166)
	at org.apache.catalina.core.StandardWrapperValve.invoke(StandardWrapperValve.java:198)
	at org.apache.catalina.core.StandardContextValve.invoke(StandardContextValve.java:96)
	at org.apache.catalina.authenticator.AuthenticatorBase.invoke(AuthenticatorBase.java:478)
	at org.apache.catalina.core.StandardHostValve.invoke(StandardHostValve.java:140)
	at org.apache.catalina.valves.ErrorReportValve.invoke(ErrorReportValve.java:80)
	at org.apache.catalina.valves.AbstractAccessLogValve.invoke(AbstractAccessLogValve.java:650)
	at org.apache.catalina.core.StandardEngineValve.invoke(StandardEngineValve.java:87)
	at org.apache.catalina.connector.CoyoteAdapter.service(CoyoteAdapter.java:342)
	at org.apache.coyote.http11.Http11Processor.service(Http11Processor.java:799)
	at org.apache.coyote.AbstractProcessorLight.process(AbstractProcessorLight.java:66)
	at org.apache.coyote.AbstractProtocol$ConnectionHandler.process(AbstractProtocol.java:868)
	at org.apache.tomcat.util.net.NioEndpoint$SocketProcessor.doRun(NioEndpoint.java:1457)
	at org.apache.tomcat.util.net.SocketProcessorBase.run(SocketProcessorBase.java:49)
	at java.util.concurrent.ThreadPoolExecutor.runWorker(ThreadPoolExecutor.java:1149)
	at java.util.concurrent.ThreadPoolExecutor$Worker.run(ThreadPoolExecutor.java:624)
	at org.apache.tomcat.util.threads.TaskThread$WrappingRunnable.run(TaskThread.java:61)
	at java.lang.Thread.run(Thread.java:748)
Caused by: java.sql.BatchUpdateException: Column 'Name' cannot be null
	at com.mysql.jdbc.PreparedStatement.executeBatchSerially(PreparedStatement.java:1669)
	at com.mysql.jdbc.PreparedStatement.executeBatch(PreparedStatement.java:1085)
	at org.hibernate.jdbc.BatchingBatcher.doExecuteBatch(BatchingBatcher.java:48)
	at org.hibernate.jdbc.AbstractBatcher.executeBatch(AbstractBatcher.java:242)
	... 43 more


 [ERROR][http-nio-8080-exec-6] 13 Oct 2017 22:51:07 613 -- Error Occured while Updating Client Details of ClientId : I2I-C0017 
org.hibernate.exception.ConstraintViolationException: Could not execute JDBC batch update
	at org.hibernate.exception.SQLStateConverter.convert(SQLStateConverter.java:71)
	at org.hibernate.exception.JDBCExceptionHelper.convert(JDBCExceptionHelper.java:43)
	at org.hibernate.jdbc.AbstractBatcher.executeBatch(AbstractBatcher.java:249)
	at org.hibernate.jdbc.AbstractBatcher.prepareStatement(AbstractBatcher.java:92)
	at org.hibernate.jdbc.AbstractBatcher.prepareStatement(AbstractBatcher.java:87)
	at org.hibernate.jdbc.AbstractBatcher.prepareBatchStatement(AbstractBatcher.java:218)
	at org.hibernate.persister.entity.AbstractEntityPersister.update(AbstractEntityPersister.java:2304)
	at org.hibernate.persister.entity.AbstractEntityPersister.updateOrInsert(AbstractEntityPersister.java:2257)
	at org.hibernate.persister.entity.AbstractEntityPersister.update(AbstractEntityPersister.java:2557)
	at org.hibernate.action.EntityUpdateAction.execute(EntityUpdateAction.java:92)
	at org.hibernate.engine.ActionQueue.execute(ActionQueue.java:248)
	at org.hibernate.engine.ActionQueue.executeActions(ActionQueue.java:232)
	at org.hibernate.engine.ActionQueue.executeActions(ActionQueue.java:140)
	at org.hibernate.event.def.AbstractFlushingEventListener.performExecutions(AbstractFlushingEventListener.java:298)
	at org.hibernate.event.def.DefaultFlushEventListener.onFlush(DefaultFlushEventListener.java:27)
	at org.hibernate.impl.SessionImpl.flush(SessionImpl.java:1000)
	at org.hibernate.impl.SessionImpl.managedFlush(SessionImpl.java:338)
	at org.hibernate.transaction.JDBCTransaction.commit(JDBCTransaction.java:106)
	at com.ideas2it.client.dao.impl.ClientDaoImpl.updateClientDetails(ClientDaoImpl.java:159)
	at com.ideas2it.client.service.impl.ClientServiceImpl.modifyClient(ClientServiceImpl.java:63)
	at com.ideas2it.client.controller.ClientController.updateClient(ClientController.java:246)
	at com.ideas2it.client.controller.ClientController.doGet(ClientController.java:59)
	at javax.servlet.http.HttpServlet.service(HttpServlet.java:635)
	at javax.servlet.http.HttpServlet.service(HttpServlet.java:742)
	at org.apache.catalina.core.ApplicationFilterChain.internalDoFilter(ApplicationFilterChain.java:231)
	at org.apache.catalina.core.ApplicationFilterChain.doFilter(ApplicationFilterChain.java:166)
	at org.apache.tomcat.websocket.server.WsFilter.doFilter(WsFilter.java:52)
	at org.apache.catalina.core.ApplicationFilterChain.internalDoFilter(ApplicationFilterChain.java:193)
	at org.apache.catalina.core.ApplicationFilterChain.doFilter(ApplicationFilterChain.java:166)
	at org.apache.catalina.core.StandardWrapperValve.invoke(StandardWrapperValve.java:198)
	at org.apache.catalina.core.StandardContextValve.invoke(StandardContextValve.java:96)
	at org.apache.catalina.authenticator.AuthenticatorBase.invoke(AuthenticatorBase.java:478)
	at org.apache.catalina.core.StandardHostValve.invoke(StandardHostValve.java:140)
	at org.apache.catalina.valves.ErrorReportValve.invoke(ErrorReportValve.java:80)
	at org.apache.catalina.valves.AbstractAccessLogValve.invoke(AbstractAccessLogValve.java:650)
	at org.apache.catalina.core.StandardEngineValve.invoke(StandardEngineValve.java:87)
	at org.apache.catalina.connector.CoyoteAdapter.service(CoyoteAdapter.java:342)
	at org.apache.coyote.http11.Http11Processor.service(Http11Processor.java:799)
	at org.apache.coyote.AbstractProcessorLight.process(AbstractProcessorLight.java:66)
	at org.apache.coyote.AbstractProtocol$ConnectionHandler.process(AbstractProtocol.java:868)
	at org.apache.tomcat.util.net.NioEndpoint$SocketProcessor.doRun(NioEndpoint.java:1457)
	at org.apache.tomcat.util.net.SocketProcessorBase.run(SocketProcessorBase.java:49)
	at java.util.concurrent.ThreadPoolExecutor.runWorker(ThreadPoolExecutor.java:1149)
	at java.util.concurrent.ThreadPoolExecutor$Worker.run(ThreadPoolExecutor.java:624)
	at org.apache.tomcat.util.threads.TaskThread$WrappingRunnable.run(TaskThread.java:61)
	at java.lang.Thread.run(Thread.java:748)
Caused by: java.sql.BatchUpdateException: Column 'Name' cannot be null
	at com.mysql.jdbc.PreparedStatement.executeBatchSerially(PreparedStatement.java:1669)
	at com.mysql.jdbc.PreparedStatement.executeBatch(PreparedStatement.java:1085)
	at org.hibernate.jdbc.BatchingBatcher.doExecuteBatch(BatchingBatcher.java:48)
	at org.hibernate.jdbc.AbstractBatcher.executeBatch(AbstractBatcher.java:242)
	... 43 more


 [INFO][http-nio-8080-exec-1] 13 Oct 2017 22:58:11 085 -- Hibernate 3.2.1 


 [INFO][http-nio-8080-exec-1] 13 Oct 2017 22:58:11 087 -- hibernate.properties not found 


 [INFO][http-nio-8080-exec-1] 13 Oct 2017 22:58:11 087 -- Bytecode provider name : cglib 


 [INFO][http-nio-8080-exec-1] 13 Oct 2017 22:58:11 089 -- using JDK 1.4 java.sql.Timestamp handling 


 [INFO][http-nio-8080-exec-1] 13 Oct 2017 22:58:11 111 -- configuring from resource: hibernate/configuration/hibernate.cfg.xml 


 [INFO][http-nio-8080-exec-1] 13 Oct 2017 22:58:11 111 -- Configuration resource: hibernate/configuration/hibernate.cfg.xml 


 [INFO][http-nio-8080-exec-1] 13 Oct 2017 22:58:12 664 -- Reading mappings from resource : hibernate/model/Employee.hbm.xml 


 [INFO][http-nio-8080-exec-1] 13 Oct 2017 22:58:13 614 -- Mapping class: com.ideas2it.employee.model.Employee -> Employee 


 [INFO][http-nio-8080-exec-1] 13 Oct 2017 22:58:13 622 -- Mapping collection: com.ideas2it.employee.model.Employee.projects -> EmployeeProject 


 [INFO][http-nio-8080-exec-1] 13 Oct 2017 22:58:13 622 -- Reading mappings from resource : hibernate/model/Client.hbm.xml 


 [INFO][http-nio-8080-exec-1] 13 Oct 2017 22:58:14 238 -- Mapping class: com.ideas2it.client.model.Client -> Client 


 [INFO][http-nio-8080-exec-1] 13 Oct 2017 22:58:14 239 -- Reading mappings from resource : hibernate/model/Address.hbm.xml 


 [INFO][http-nio-8080-exec-1] 13 Oct 2017 22:58:14 556 -- Mapping class: com.ideas2it.address.model.Address -> Address 


 [INFO][http-nio-8080-exec-1] 13 Oct 2017 22:58:14 581 -- Reading mappings from resource : hibernate/model/Project.hbm.xml 


 [INFO][http-nio-8080-exec-1] 13 Oct 2017 22:58:14 897 -- Mapping class: com.ideas2it.project.model.Project -> Project 


 [INFO][http-nio-8080-exec-1] 13 Oct 2017 22:58:14 898 -- Mapping collection: com.ideas2it.project.model.Project.employees -> EmployeeProject 


 [INFO][http-nio-8080-exec-1] 13 Oct 2017 22:58:14 898 -- Configured SessionFactory: null 


 [INFO][http-nio-8080-exec-1] 13 Oct 2017 22:58:14 898 -- Mapping collection: com.ideas2it.employee.model.Employee.addresses -> Address 


 [INFO][http-nio-8080-exec-1] 13 Oct 2017 22:58:14 900 -- Mapping collection: com.ideas2it.client.model.Client.addresses -> Address 


 [INFO][http-nio-8080-exec-1] 13 Oct 2017 22:58:14 900 -- Mapping collection: com.ideas2it.client.model.Client.projects -> Project 


 [INFO][http-nio-8080-exec-1] 13 Oct 2017 22:58:14 906 -- Using Hibernate built-in connection pool (not for production use!) 


 [INFO][http-nio-8080-exec-1] 13 Oct 2017 22:58:14 906 -- Hibernate connection pool size: 20 


 [INFO][http-nio-8080-exec-1] 13 Oct 2017 22:58:14 907 -- autocommit mode: false 


 [INFO][http-nio-8080-exec-1] 13 Oct 2017 22:58:14 908 -- using driver: com.mysql.jdbc.Driver at URL: jdbc:mysql://localhost:3306/CompanyManagement 


 [INFO][http-nio-8080-exec-1] 13 Oct 2017 22:58:14 908 -- connection properties: {user=root, password=****} 


 [INFO][http-nio-8080-exec-1] 13 Oct 2017 22:58:15 097 -- RDBMS: MySQL, version: 5.7.19-0ubuntu0.16.04.1 


 [INFO][http-nio-8080-exec-1] 13 Oct 2017 22:58:15 097 -- JDBC driver: MySQL-AB JDBC Driver, version: mysql-connector-java-5.1.5 ( Revision: ${svn.Revision} ) 


 [INFO][http-nio-8080-exec-1] 13 Oct 2017 22:58:15 106 -- Using dialect: org.hibernate.dialect.MySQLDialect 


 [INFO][http-nio-8080-exec-1] 13 Oct 2017 22:58:15 109 -- Using default transaction strategy (direct JDBC transactions) 


 [INFO][http-nio-8080-exec-1] 13 Oct 2017 22:58:15 110 -- No TransactionManagerLookup configured (in JTA environment, use of read-write or transactional second-level cache is not recommended) 


 [INFO][http-nio-8080-exec-1] 13 Oct 2017 22:58:15 110 -- Automatic flush during beforeCompletion(): disabled 


 [INFO][http-nio-8080-exec-1] 13 Oct 2017 22:58:15 110 -- Automatic session close at end of transaction: disabled 


 [INFO][http-nio-8080-exec-1] 13 Oct 2017 22:58:15 110 -- JDBC batch size: 15 


 [INFO][http-nio-8080-exec-1] 13 Oct 2017 22:58:15 110 -- JDBC batch updates for versioned data: disabled 


 [INFO][http-nio-8080-exec-1] 13 Oct 2017 22:58:15 111 -- Scrollable result sets: enabled 


 [INFO][http-nio-8080-exec-1] 13 Oct 2017 22:58:15 111 -- JDBC3 getGeneratedKeys(): enabled 


 [INFO][http-nio-8080-exec-1] 13 Oct 2017 22:58:15 111 -- Connection release mode: auto 


 [INFO][http-nio-8080-exec-1] 13 Oct 2017 22:58:15 111 -- Maximum outer join fetch depth: 2 


 [INFO][http-nio-8080-exec-1] 13 Oct 2017 22:58:15 111 -- Default batch fetch size: 1 


 [INFO][http-nio-8080-exec-1] 13 Oct 2017 22:58:15 111 -- Generate SQL with comments: disabled 


 [INFO][http-nio-8080-exec-1] 13 Oct 2017 22:58:15 111 -- Order SQL updates by primary key: disabled 


 [INFO][http-nio-8080-exec-1] 13 Oct 2017 22:58:15 111 -- Query translator: org.hibernate.hql.ast.ASTQueryTranslatorFactory 


 [INFO][http-nio-8080-exec-1] 13 Oct 2017 22:58:15 112 -- Using ASTQueryTranslatorFactory 


 [INFO][http-nio-8080-exec-1] 13 Oct 2017 22:58:15 112 -- Query language substitutions: {} 


 [INFO][http-nio-8080-exec-1] 13 Oct 2017 22:58:15 112 -- JPA-QL strict compliance: disabled 


 [INFO][http-nio-8080-exec-1] 13 Oct 2017 22:58:15 112 -- Second-level cache: enabled 


 [INFO][http-nio-8080-exec-1] 13 Oct 2017 22:58:15 112 -- Query cache: disabled 


 [INFO][http-nio-8080-exec-1] 13 Oct 2017 22:58:15 112 -- Cache provider: org.hibernate.cache.NoCacheProvider 


 [INFO][http-nio-8080-exec-1] 13 Oct 2017 22:58:15 112 -- Optimize cache for minimal puts: disabled 


 [INFO][http-nio-8080-exec-1] 13 Oct 2017 22:58:15 112 -- Structured second-level cache entries: disabled 


 [INFO][http-nio-8080-exec-1] 13 Oct 2017 22:58:15 114 -- Echoing all SQL to stdout 


 [INFO][http-nio-8080-exec-1] 13 Oct 2017 22:58:15 115 -- Statistics: disabled 


 [INFO][http-nio-8080-exec-1] 13 Oct 2017 22:58:15 115 -- Deleted entity synthetic identifier rollback: disabled 


 [INFO][http-nio-8080-exec-1] 13 Oct 2017 22:58:15 115 -- Default entity-mode: pojo 


 [INFO][http-nio-8080-exec-1] 13 Oct 2017 22:58:15 131 -- building session factory 


 [INFO][http-nio-8080-exec-1] 13 Oct 2017 22:58:15 273 -- Not binding factory to JNDI, no JNDI name configured 


 [WARN][http-nio-8080-exec-3] 13 Oct 2017 22:58:23 840 -- SQL Error: 1048, SQLState: 23000 


 [ERROR][http-nio-8080-exec-3] 13 Oct 2017 22:58:23 840 -- Column 'City' cannot be null 


 [ERROR][http-nio-8080-exec-3] 13 Oct 2017 22:58:23 840 -- Could not synchronize database state with session 
org.hibernate.exception.ConstraintViolationException: Could not execute JDBC batch update
	at org.hibernate.exception.SQLStateConverter.convert(SQLStateConverter.java:71)
	at org.hibernate.exception.JDBCExceptionHelper.convert(JDBCExceptionHelper.java:43)
	at org.hibernate.jdbc.AbstractBatcher.executeBatch(AbstractBatcher.java:249)
	at org.hibernate.engine.ActionQueue.executeActions(ActionQueue.java:235)
	at org.hibernate.engine.ActionQueue.executeActions(ActionQueue.java:140)
	at org.hibernate.event.def.AbstractFlushingEventListener.performExecutions(AbstractFlushingEventListener.java:298)
	at org.hibernate.event.def.DefaultFlushEventListener.onFlush(DefaultFlushEventListener.java:27)
	at org.hibernate.impl.SessionImpl.flush(SessionImpl.java:1000)
	at org.hibernate.impl.SessionImpl.managedFlush(SessionImpl.java:338)
	at org.hibernate.transaction.JDBCTransaction.commit(JDBCTransaction.java:106)
	at com.ideas2it.employee.Dao.impl.EmployeeDaoImpl.updateEmployeeDetails(EmployeeDaoImpl.java:118)
	at com.ideas2it.employee.service.impl.EmployeeServiceImpl.modifyEmployee(EmployeeServiceImpl.java:106)
	at com.ideas2it.employee.controller.EmployeeController.updateEmployee(EmployeeController.java:311)
	at com.ideas2it.employee.controller.EmployeeController.doGet(EmployeeController.java:65)
	at javax.servlet.http.HttpServlet.service(HttpServlet.java:635)
	at javax.servlet.http.HttpServlet.service(HttpServlet.java:742)
	at org.apache.catalina.core.ApplicationFilterChain.internalDoFilter(ApplicationFilterChain.java:231)
	at org.apache.catalina.core.ApplicationFilterChain.doFilter(ApplicationFilterChain.java:166)
	at org.apache.tomcat.websocket.server.WsFilter.doFilter(WsFilter.java:52)
	at org.apache.catalina.core.ApplicationFilterChain.internalDoFilter(ApplicationFilterChain.java:193)
	at org.apache.catalina.core.ApplicationFilterChain.doFilter(ApplicationFilterChain.java:166)
	at org.apache.catalina.core.StandardWrapperValve.invoke(StandardWrapperValve.java:198)
	at org.apache.catalina.core.StandardContextValve.invoke(StandardContextValve.java:96)
	at org.apache.catalina.authenticator.AuthenticatorBase.invoke(AuthenticatorBase.java:478)
	at org.apache.catalina.core.StandardHostValve.invoke(StandardHostValve.java:140)
	at org.apache.catalina.valves.ErrorReportValve.invoke(ErrorReportValve.java:80)
	at org.apache.catalina.valves.AbstractAccessLogValve.invoke(AbstractAccessLogValve.java:650)
	at org.apache.catalina.core.StandardEngineValve.invoke(StandardEngineValve.java:87)
	at org.apache.catalina.connector.CoyoteAdapter.service(CoyoteAdapter.java:342)
	at org.apache.coyote.http11.Http11Processor.service(Http11Processor.java:799)
	at org.apache.coyote.AbstractProcessorLight.process(AbstractProcessorLight.java:66)
	at org.apache.coyote.AbstractProtocol$ConnectionHandler.process(AbstractProtocol.java:868)
	at org.apache.tomcat.util.net.NioEndpoint$SocketProcessor.doRun(NioEndpoint.java:1457)
	at org.apache.tomcat.util.net.SocketProcessorBase.run(SocketProcessorBase.java:49)
	at java.util.concurrent.ThreadPoolExecutor.runWorker(ThreadPoolExecutor.java:1149)
	at java.util.concurrent.ThreadPoolExecutor$Worker.run(ThreadPoolExecutor.java:624)
	at org.apache.tomcat.util.threads.TaskThread$WrappingRunnable.run(TaskThread.java:61)
	at java.lang.Thread.run(Thread.java:748)
Caused by: java.sql.BatchUpdateException: Column 'City' cannot be null
	at com.mysql.jdbc.PreparedStatement.executeBatchSerially(PreparedStatement.java:1669)
	at com.mysql.jdbc.PreparedStatement.executeBatch(PreparedStatement.java:1085)
	at org.hibernate.jdbc.BatchingBatcher.doExecuteBatch(BatchingBatcher.java:48)
	at org.hibernate.jdbc.AbstractBatcher.executeBatch(AbstractBatcher.java:242)
	... 35 more


 [ERROR][http-nio-8080-exec-3] 13 Oct 2017 22:58:23 882 -- Error Occured while Updating Empoyee details of EmployeeId code : I2I-E0052 
org.hibernate.exception.ConstraintViolationException: Could not execute JDBC batch update
	at org.hibernate.exception.SQLStateConverter.convert(SQLStateConverter.java:71)
	at org.hibernate.exception.JDBCExceptionHelper.convert(JDBCExceptionHelper.java:43)
	at org.hibernate.jdbc.AbstractBatcher.executeBatch(AbstractBatcher.java:249)
	at org.hibernate.engine.ActionQueue.executeActions(ActionQueue.java:235)
	at org.hibernate.engine.ActionQueue.executeActions(ActionQueue.java:140)
	at org.hibernate.event.def.AbstractFlushingEventListener.performExecutions(AbstractFlushingEventListener.java:298)
	at org.hibernate.event.def.DefaultFlushEventListener.onFlush(DefaultFlushEventListener.java:27)
	at org.hibernate.impl.SessionImpl.flush(SessionImpl.java:1000)
	at org.hibernate.impl.SessionImpl.managedFlush(SessionImpl.java:338)
	at org.hibernate.transaction.JDBCTransaction.commit(JDBCTransaction.java:106)
	at com.ideas2it.employee.Dao.impl.EmployeeDaoImpl.updateEmployeeDetails(EmployeeDaoImpl.java:118)
	at com.ideas2it.employee.service.impl.EmployeeServiceImpl.modifyEmployee(EmployeeServiceImpl.java:106)
	at com.ideas2it.employee.controller.EmployeeController.updateEmployee(EmployeeController.java:311)
	at com.ideas2it.employee.controller.EmployeeController.doGet(EmployeeController.java:65)
	at javax.servlet.http.HttpServlet.service(HttpServlet.java:635)
	at javax.servlet.http.HttpServlet.service(HttpServlet.java:742)
	at org.apache.catalina.core.ApplicationFilterChain.internalDoFilter(ApplicationFilterChain.java:231)
	at org.apache.catalina.core.ApplicationFilterChain.doFilter(ApplicationFilterChain.java:166)
	at org.apache.tomcat.websocket.server.WsFilter.doFilter(WsFilter.java:52)
	at org.apache.catalina.core.ApplicationFilterChain.internalDoFilter(ApplicationFilterChain.java:193)
	at org.apache.catalina.core.ApplicationFilterChain.doFilter(ApplicationFilterChain.java:166)
	at org.apache.catalina.core.StandardWrapperValve.invoke(StandardWrapperValve.java:198)
	at org.apache.catalina.core.StandardContextValve.invoke(StandardContextValve.java:96)
	at org.apache.catalina.authenticator.AuthenticatorBase.invoke(AuthenticatorBase.java:478)
	at org.apache.catalina.core.StandardHostValve.invoke(StandardHostValve.java:140)
	at org.apache.catalina.valves.ErrorReportValve.invoke(ErrorReportValve.java:80)
	at org.apache.catalina.valves.AbstractAccessLogValve.invoke(AbstractAccessLogValve.java:650)
	at org.apache.catalina.core.StandardEngineValve.invoke(StandardEngineValve.java:87)
	at org.apache.catalina.connector.CoyoteAdapter.service(CoyoteAdapter.java:342)
	at org.apache.coyote.http11.Http11Processor.service(Http11Processor.java:799)
	at org.apache.coyote.AbstractProcessorLight.process(AbstractProcessorLight.java:66)
	at org.apache.coyote.AbstractProtocol$ConnectionHandler.process(AbstractProtocol.java:868)
	at org.apache.tomcat.util.net.NioEndpoint$SocketProcessor.doRun(NioEndpoint.java:1457)
	at org.apache.tomcat.util.net.SocketProcessorBase.run(SocketProcessorBase.java:49)
	at java.util.concurrent.ThreadPoolExecutor.runWorker(ThreadPoolExecutor.java:1149)
	at java.util.concurrent.ThreadPoolExecutor$Worker.run(ThreadPoolExecutor.java:624)
	at org.apache.tomcat.util.threads.TaskThread$WrappingRunnable.run(TaskThread.java:61)
	at java.lang.Thread.run(Thread.java:748)
Caused by: java.sql.BatchUpdateException: Column 'City' cannot be null
	at com.mysql.jdbc.PreparedStatement.executeBatchSerially(PreparedStatement.java:1669)
	at com.mysql.jdbc.PreparedStatement.executeBatch(PreparedStatement.java:1085)
	at org.hibernate.jdbc.BatchingBatcher.doExecuteBatch(BatchingBatcher.java:48)
	at org.hibernate.jdbc.AbstractBatcher.executeBatch(AbstractBatcher.java:242)
	... 35 more


 [WARN][http-nio-8080-exec-4] 13 Oct 2017 22:59:56 720 -- SQL Error: 1048, SQLState: 23000 


 [ERROR][http-nio-8080-exec-4] 13 Oct 2017 22:59:56 720 -- Column 'Name' cannot be null 


 [ERROR][http-nio-8080-exec-4] 13 Oct 2017 22:59:56 720 -- Could not synchronize database state with session 
org.hibernate.exception.ConstraintViolationException: Could not execute JDBC batch update
	at org.hibernate.exception.SQLStateConverter.convert(SQLStateConverter.java:71)
	at org.hibernate.exception.JDBCExceptionHelper.convert(JDBCExceptionHelper.java:43)
	at org.hibernate.jdbc.AbstractBatcher.executeBatch(AbstractBatcher.java:249)
	at org.hibernate.jdbc.AbstractBatcher.prepareStatement(AbstractBatcher.java:92)
	at org.hibernate.jdbc.AbstractBatcher.prepareStatement(AbstractBatcher.java:87)
	at org.hibernate.jdbc.AbstractBatcher.prepareBatchStatement(AbstractBatcher.java:218)
	at org.hibernate.persister.entity.AbstractEntityPersister.update(AbstractEntityPersister.java:2304)
	at org.hibernate.persister.entity.AbstractEntityPersister.updateOrInsert(AbstractEntityPersister.java:2257)
	at org.hibernate.persister.entity.AbstractEntityPersister.update(AbstractEntityPersister.java:2557)
	at org.hibernate.action.EntityUpdateAction.execute(EntityUpdateAction.java:92)
	at org.hibernate.engine.ActionQueue.execute(ActionQueue.java:248)
	at org.hibernate.engine.ActionQueue.executeActions(ActionQueue.java:232)
	at org.hibernate.engine.ActionQueue.executeActions(ActionQueue.java:140)
	at org.hibernate.event.def.AbstractFlushingEventListener.performExecutions(AbstractFlushingEventListener.java:298)
	at org.hibernate.event.def.DefaultFlushEventListener.onFlush(DefaultFlushEventListener.java:27)
	at org.hibernate.impl.SessionImpl.flush(SessionImpl.java:1000)
	at org.hibernate.impl.SessionImpl.managedFlush(SessionImpl.java:338)
	at org.hibernate.transaction.JDBCTransaction.commit(JDBCTransaction.java:106)
	at com.ideas2it.client.dao.impl.ClientDaoImpl.updateClientDetails(ClientDaoImpl.java:159)
	at com.ideas2it.client.service.impl.ClientServiceImpl.modifyClient(ClientServiceImpl.java:63)
	at com.ideas2it.client.controller.ClientController.updateClient(ClientController.java:248)
	at com.ideas2it.client.controller.ClientController.doGet(ClientController.java:59)
	at javax.servlet.http.HttpServlet.service(HttpServlet.java:635)
	at javax.servlet.http.HttpServlet.service(HttpServlet.java:742)
	at org.apache.catalina.core.ApplicationFilterChain.internalDoFilter(ApplicationFilterChain.java:231)
	at org.apache.catalina.core.ApplicationFilterChain.doFilter(ApplicationFilterChain.java:166)
	at org.apache.tomcat.websocket.server.WsFilter.doFilter(WsFilter.java:52)
	at org.apache.catalina.core.ApplicationFilterChain.internalDoFilter(ApplicationFilterChain.java:193)
	at org.apache.catalina.core.ApplicationFilterChain.doFilter(ApplicationFilterChain.java:166)
	at org.apache.catalina.core.StandardWrapperValve.invoke(StandardWrapperValve.java:198)
	at org.apache.catalina.core.StandardContextValve.invoke(StandardContextValve.java:96)
	at org.apache.catalina.authenticator.AuthenticatorBase.invoke(AuthenticatorBase.java:478)
	at org.apache.catalina.core.StandardHostValve.invoke(StandardHostValve.java:140)
	at org.apache.catalina.valves.ErrorReportValve.invoke(ErrorReportValve.java:80)
	at org.apache.catalina.valves.AbstractAccessLogValve.invoke(AbstractAccessLogValve.java:650)
	at org.apache.catalina.core.StandardEngineValve.invoke(StandardEngineValve.java:87)
	at org.apache.catalina.connector.CoyoteAdapter.service(CoyoteAdapter.java:342)
	at org.apache.coyote.http11.Http11Processor.service(Http11Processor.java:799)
	at org.apache.coyote.AbstractProcessorLight.process(AbstractProcessorLight.java:66)
	at org.apache.coyote.AbstractProtocol$ConnectionHandler.process(AbstractProtocol.java:868)
	at org.apache.tomcat.util.net.NioEndpoint$SocketProcessor.doRun(NioEndpoint.java:1457)
	at org.apache.tomcat.util.net.SocketProcessorBase.run(SocketProcessorBase.java:49)
	at java.util.concurrent.ThreadPoolExecutor.runWorker(ThreadPoolExecutor.java:1149)
	at java.util.concurrent.ThreadPoolExecutor$Worker.run(ThreadPoolExecutor.java:624)
	at org.apache.tomcat.util.threads.TaskThread$WrappingRunnable.run(TaskThread.java:61)
	at java.lang.Thread.run(Thread.java:748)
Caused by: java.sql.BatchUpdateException: Column 'Name' cannot be null
	at com.mysql.jdbc.PreparedStatement.executeBatchSerially(PreparedStatement.java:1669)
	at com.mysql.jdbc.PreparedStatement.executeBatch(PreparedStatement.java:1085)
	at org.hibernate.jdbc.BatchingBatcher.doExecuteBatch(BatchingBatcher.java:48)
	at org.hibernate.jdbc.AbstractBatcher.executeBatch(AbstractBatcher.java:242)
	... 43 more


 [ERROR][http-nio-8080-exec-4] 13 Oct 2017 22:59:56 722 -- Error Occured while Updating Client Details of ClientId : I2I-C0018 
org.hibernate.exception.ConstraintViolationException: Could not execute JDBC batch update
	at org.hibernate.exception.SQLStateConverter.convert(SQLStateConverter.java:71)
	at org.hibernate.exception.JDBCExceptionHelper.convert(JDBCExceptionHelper.java:43)
	at org.hibernate.jdbc.AbstractBatcher.executeBatch(AbstractBatcher.java:249)
	at org.hibernate.jdbc.AbstractBatcher.prepareStatement(AbstractBatcher.java:92)
	at org.hibernate.jdbc.AbstractBatcher.prepareStatement(AbstractBatcher.java:87)
	at org.hibernate.jdbc.AbstractBatcher.prepareBatchStatement(AbstractBatcher.java:218)
	at org.hibernate.persister.entity.AbstractEntityPersister.update(AbstractEntityPersister.java:2304)
	at org.hibernate.persister.entity.AbstractEntityPersister.updateOrInsert(AbstractEntityPersister.java:2257)
	at org.hibernate.persister.entity.AbstractEntityPersister.update(AbstractEntityPersister.java:2557)
	at org.hibernate.action.EntityUpdateAction.execute(EntityUpdateAction.java:92)
	at org.hibernate.engine.ActionQueue.execute(ActionQueue.java:248)
	at org.hibernate.engine.ActionQueue.executeActions(ActionQueue.java:232)
	at org.hibernate.engine.ActionQueue.executeActions(ActionQueue.java:140)
	at org.hibernate.event.def.AbstractFlushingEventListener.performExecutions(AbstractFlushingEventListener.java:298)
	at org.hibernate.event.def.DefaultFlushEventListener.onFlush(DefaultFlushEventListener.java:27)
	at org.hibernate.impl.SessionImpl.flush(SessionImpl.java:1000)
	at org.hibernate.impl.SessionImpl.managedFlush(SessionImpl.java:338)
	at org.hibernate.transaction.JDBCTransaction.commit(JDBCTransaction.java:106)
	at com.ideas2it.client.dao.impl.ClientDaoImpl.updateClientDetails(ClientDaoImpl.java:159)
	at com.ideas2it.client.service.impl.ClientServiceImpl.modifyClient(ClientServiceImpl.java:63)
	at com.ideas2it.client.controller.ClientController.updateClient(ClientController.java:248)
	at com.ideas2it.client.controller.ClientController.doGet(ClientController.java:59)
	at javax.servlet.http.HttpServlet.service(HttpServlet.java:635)
	at javax.servlet.http.HttpServlet.service(HttpServlet.java:742)
	at org.apache.catalina.core.ApplicationFilterChain.internalDoFilter(ApplicationFilterChain.java:231)
	at org.apache.catalina.core.ApplicationFilterChain.doFilter(ApplicationFilterChain.java:166)
	at org.apache.tomcat.websocket.server.WsFilter.doFilter(WsFilter.java:52)
	at org.apache.catalina.core.ApplicationFilterChain.internalDoFilter(ApplicationFilterChain.java:193)
	at org.apache.catalina.core.ApplicationFilterChain.doFilter(ApplicationFilterChain.java:166)
	at org.apache.catalina.core.StandardWrapperValve.invoke(StandardWrapperValve.java:198)
	at org.apache.catalina.core.StandardContextValve.invoke(StandardContextValve.java:96)
	at org.apache.catalina.authenticator.AuthenticatorBase.invoke(AuthenticatorBase.java:478)
	at org.apache.catalina.core.StandardHostValve.invoke(StandardHostValve.java:140)
	at org.apache.catalina.valves.ErrorReportValve.invoke(ErrorReportValve.java:80)
	at org.apache.catalina.valves.AbstractAccessLogValve.invoke(AbstractAccessLogValve.java:650)
	at org.apache.catalina.core.StandardEngineValve.invoke(StandardEngineValve.java:87)
	at org.apache.catalina.connector.CoyoteAdapter.service(CoyoteAdapter.java:342)
	at org.apache.coyote.http11.Http11Processor.service(Http11Processor.java:799)
	at org.apache.coyote.AbstractProcessorLight.process(AbstractProcessorLight.java:66)
	at org.apache.coyote.AbstractProtocol$ConnectionHandler.process(AbstractProtocol.java:868)
	at org.apache.tomcat.util.net.NioEndpoint$SocketProcessor.doRun(NioEndpoint.java:1457)
	at org.apache.tomcat.util.net.SocketProcessorBase.run(SocketProcessorBase.java:49)
	at java.util.concurrent.ThreadPoolExecutor.runWorker(ThreadPoolExecutor.java:1149)
	at java.util.concurrent.ThreadPoolExecutor$Worker.run(ThreadPoolExecutor.java:624)
	at org.apache.tomcat.util.threads.TaskThread$WrappingRunnable.run(TaskThread.java:61)
	at java.lang.Thread.run(Thread.java:748)
Caused by: java.sql.BatchUpdateException: Column 'Name' cannot be null
	at com.mysql.jdbc.PreparedStatement.executeBatchSerially(PreparedStatement.java:1669)
	at com.mysql.jdbc.PreparedStatement.executeBatch(PreparedStatement.java:1085)
	at org.hibernate.jdbc.BatchingBatcher.doExecuteBatch(BatchingBatcher.java:48)
	at org.hibernate.jdbc.AbstractBatcher.executeBatch(AbstractBatcher.java:242)
	... 43 more
